{
"document" : {
"data" : {
"NAME" : "DQM_MIDDLEWARE_HISTOS_CONSUMER_TABLE",
"COMMENT" : "No comment.",
"AUTHOR" : "admin",
"CREATION_TIME" : 1730924432,
"COL_TYPES" : {
"PROCESSOR_UID" : "STRING",
"FILE_PATH" : "STRING",
"RADIX_FILE_NAME" : "STRING",
"SAVE_FILE" : "STRING",
"CALIBRATION_NAME" : "STRING",
"CONFIGURATION_DIR" : "STRING",
"CONFIGURATION_NAME" : "STRING",
"COMMENT_DESCRIPTION" : "STRING",
"AUTHOR" : "STRING",
"RECORD_INSERTION_TIME" : "TIMESTAMP WITH TIMEZONE"
},
"DATA_SET" : [
{
"PROCESSOR_UID" : "VBTrackerDQMHistos",
"FILE_PATH" : "${OTSDAQ_DATA}/TrackerHistos",
"RADIX_FILE_NAME" : "TrackerHistos_",
"SAVE_FILE" : "Yes",
"CALIBRATION_NAME" : "fullTest",
"CONFIGURATION_DIR" : "${PH2ACF_BASE_DIR}/settings",
"CONFIGURATION_NAME" : "10Modules_Burnin.xml",
"COMMENT_DESCRIPTION" : "No Comment",
"AUTHOR" : "admin",
"RECORD_INSERTION_TIME" : "1730924397"
}
]
},
"metadata" : {

},
"search" : [

]
},
"comments" : [

],
"origin" : {
"source" : "template",
"name" : "notprovided",
"format" : "json",
"created" : "2024-11-09T09:23:57.162-0600",
"rawdata" : [

]
},
"version" : "1",
"entities" : [
{
"name" : "OTSROOT",
"assigned" : "2024-11-09T09:23:57.162-0600"
}
],
"configurations" : [
{
"name" : "notprovided",
"assigned" : "2024-11-09T09:23:57.162-0600"
},
{
"name" : "BurninBoxConfiguration_v1",
"assigned" : "2024-11-09T09:23:57.315-0600"
}
],
"changelog" : "notprovided",
"bookkeeping" : {
"isdeleted" : false,
"isreadonly" : false,
"updates" : [
{
"event" : "addConfiguration",
"timestamp" : "2024-11-09T09:23:57.162-0600",
"value" : {
"name" : "notprovided",
"assigned" : "2024-11-09T09:23:57.162-0600"
}
},
{
"event" : "setVersion",
"timestamp" : "2024-11-09T09:23:57.162-0600",
"value" : {
"name" : "1",
"assigned" : "2024-11-09T09:23:57.162-0600"
}
},
{
"event" : "setCollection",
"timestamp" : "2024-11-09T09:23:57.162-0600",
"value" : {
"name" : "DQMMiddlewareHistosConsumerTable",
"assigned" : "2024-11-09T09:23:57.162-0600"
}
},
{
"event" : "addEntity",
"timestamp" : "2024-11-09T09:23:57.162-0600",
"value" : {
"name" : "OTSROOT",
"assigned" : "2024-11-09T09:23:57.162-0600"
}
},
{
"event" : "addConfiguration",
"timestamp" : "2024-11-09T09:23:57.315-0600",
"value" : {
"name" : "BurninBoxConfiguration_v1",
"assigned" : "2024-11-09T09:23:57.315-0600"
}
}
],
"created" : "2024-11-09T09:23:57.162-0600"
},
"_id" : {
"$oid" : "40a228827f8b4098a45a3dc6"
},
"collection" : "DQMMiddlewareHistosConsumerTable",
"aliases" : {
"active" : [

],
"history" : [

]
},
"runs" : [

],
"attachments" : [

],
"configtype" : "notprovided"
}