{
"ouid" : [
"0f26ae5469794991be01eaa1",
"1c6b46befee749038c1fa854"
],
"version" : {
"4" : [
"0f26ae5469794991be01eaa1"
],
"6" : [
"1c6b46befee749038c1fa854"
]
},
"configurations.name" : {
"notprovided" : [
"0f26ae5469794991be01eaa1",
"1c6b46befee749038c1fa854"
],
"GroupAliasTreeEditWizBackbone_v4" : [
"0f26ae5469794991be01eaa1"
],
"GroupAliasTreeEditWizBackbone_v6" : [
"1c6b46befee749038c1fa854"
]
},
"entities.name" : {
"OTSROOT" : [
"0f26ae5469794991be01eaa1",
"1c6b46befee749038c1fa854"
]
},
"aliases.active.name" : {

},
"runs.name" : {

},
"configurations.assigned" : {
"notprovided" : [
"2024-11-09T09:23:58.137-0600",
"2024-11-09T09:23:58.764-0600"
],
"GroupAliasTreeEditWizBackbone_v4" : [
"2024-11-09T09:23:58.185-0600"
],
"GroupAliasTreeEditWizBackbone_v6" : [
"2024-11-09T09:23:58.789-0600"
]
}
}