{
"document" : {
"data" : {
"NAME" : "SLOW_CONTROLS_DASHBOARD_SUPERVISOR_TABLE",
"COMMENT" : "No comment.",
"AUTHOR" : "admin",
"CREATION_TIME" : 1593446109,
"COL_TYPES" : {
"SUPERVISOR_UID" : "STRING",
"SLOW_CONTROLS_INTERFACE_PLUGIN_TYPE" : "STRING",
"SLOW_CONTROLS_CHANNEL_SOURCE_TABLE_LIST" : "STRING",
"LINK_TO_CONFIGURE_ALARMS_TO_MONITOR_TABLE" : "STRING",
"LINK_TO_CONFIGURE_ALARMS_TO_MONITOR_GROUP_ID" : "STRING",
"LINK_TO_HALT_ALARMS_TO_MONITOR_TABLE" : "STRING",
"LINK_TO_HALT_ALARMS_TO_MONITOR_GROUP_ID" : "STRING",
"LINK_TO_PAUSE_ALARMS_TO_MONITOR_TABLE" : "STRING",
"LINK_TO_PAUSE_ALARMS_TO_MONITOR_GROUP_ID" : "STRING",
"LINK_TO_RESUME_ALARMS_TO_MONITOR_TABLE" : "STRING",
"LINK_TO_RESUME_ALARMS_TO_MONITOR_GROUP_ID" : "STRING",
"LINK_TO_START_ALARMS_TO_MONITOR_TABLE" : "STRING",
"LINK_TO_START_ALARMS_TO_MONITOR_GROUP_ID" : "STRING",
"LINK_TO_STOP_ALARMS_TO_MONITOR_TABLE" : "STRING",
"LINK_TO_STOP_ALARMS_TO_MONITOR_GROUP_ID" : "STRING",
"LINK_TO_RUNNING_ALARMS_TO_MONITOR_TABLE" : "STRING",
"LINK_TO_RUNNING_ALARMS_TO_MONITOR_GROUP_ID" : "STRING",
"LINK_TO_ALARM_ALERT_NOTIFICATIONS_TABLE" : "STRING",
"LINK_TO_ALARM_ALERT_NOTIFICATIONS_GROUP_ID" : "STRING",
"COMMENT_DESCRIPTION" : "STRING",
"AUTHOR" : "STRING",
"RECORD_INSERTION_TIME" : "TIMESTAMP WITH TIMEZONE"
},
"DATA_SET" : [
{
"SUPERVISOR_UID" : "DEFAULT",
"SLOW_CONTROLS_INTERFACE_PLUGIN_TYPE" : "DEFAULT",
"SLOW_CONTROLS_CHANNEL_SOURCE_TABLE_LIST" : "DEFAULT",
"LINK_TO_CONFIGURE_ALARMS_TO_MONITOR_TABLE" : "NO_LINK",
"LINK_TO_CONFIGURE_ALARMS_TO_MONITOR_GROUP_ID" : "DEFAULT",
"LINK_TO_HALT_ALARMS_TO_MONITOR_TABLE" : "NO_LINK",
"LINK_TO_HALT_ALARMS_TO_MONITOR_GROUP_ID" : "DEFAULT",
"LINK_TO_PAUSE_ALARMS_TO_MONITOR_TABLE" : "NO_LINK",
"LINK_TO_PAUSE_ALARMS_TO_MONITOR_GROUP_ID" : "DEFAULT",
"LINK_TO_RESUME_ALARMS_TO_MONITOR_TABLE" : "NO_LINK",
"LINK_TO_RESUME_ALARMS_TO_MONITOR_GROUP_ID" : "DEFAULT",
"LINK_TO_START_ALARMS_TO_MONITOR_TABLE" : "NO_LINK",
"LINK_TO_START_ALARMS_TO_MONITOR_GROUP_ID" : "DEFAULT",
"LINK_TO_STOP_ALARMS_TO_MONITOR_TABLE" : "NO_LINK",
"LINK_TO_STOP_ALARMS_TO_MONITOR_GROUP_ID" : "DEFAULT",
"LINK_TO_RUNNING_ALARMS_TO_MONITOR_TABLE" : "NO_LINK",
"LINK_TO_RUNNING_ALARMS_TO_MONITOR_GROUP_ID" : "DEFAULT",
"LINK_TO_ALARM_ALERT_NOTIFICATIONS_TABLE" : "NO_LINK",
"LINK_TO_ALARM_ALERT_NOTIFICATIONS_GROUP_ID" : "DEFAULT",
"COMMENT_DESCRIPTION" : "No Comment",
"AUTHOR" : "admin",
"RECORD_INSERTION_TIME" : "1593446109"
}
]
},
"metadata" : {

},
"search" : [

]
},
"comments" : [

],
"origin" : {
"source" : "template",
"name" : "notprovided",
"format" : "json",
"created" : "2024-11-09T09:23:57.647-0600",
"rawdata" : [

]
},
"version" : "2",
"entities" : [
{
"name" : "OTSROOT",
"assigned" : "2024-11-09T09:23:57.647-0600"
}
],
"configurations" : [
{
"name" : "notprovided",
"assigned" : "2024-11-09T09:23:57.647-0600"
},
{
"name" : "DefaultContext_v2",
"assigned" : "2024-11-09T09:23:57.805-0600"
},
{
"name" : "DefaultContext_v3",
"assigned" : "2024-11-09T09:23:58.036-0600"
}
],
"changelog" : "notprovided",
"bookkeeping" : {
"isdeleted" : false,
"isreadonly" : false,
"updates" : [
{
"event" : "addConfiguration",
"timestamp" : "2024-11-09T09:23:57.647-0600",
"value" : {
"name" : "notprovided",
"assigned" : "2024-11-09T09:23:57.647-0600"
}
},
{
"event" : "setVersion",
"timestamp" : "2024-11-09T09:23:57.647-0600",
"value" : {
"name" : "2",
"assigned" : "2024-11-09T09:23:57.647-0600"
}
},
{
"event" : "setCollection",
"timestamp" : "2024-11-09T09:23:57.647-0600",
"value" : {
"name" : "SlowControlsDashboardSupervisorTable",
"assigned" : "2024-11-09T09:23:57.647-0600"
}
},
{
"event" : "addEntity",
"timestamp" : "2024-11-09T09:23:57.647-0600",
"value" : {
"name" : "OTSROOT",
"assigned" : "2024-11-09T09:23:57.647-0600"
}
},
{
"event" : "addConfiguration",
"timestamp" : "2024-11-09T09:23:57.805-0600",
"value" : {
"name" : "DefaultContext_v2",
"assigned" : "2024-11-09T09:23:57.805-0600"
}
},
{
"event" : "addConfiguration",
"timestamp" : "2024-11-09T09:23:58.036-0600",
"value" : {
"name" : "DefaultContext_v3",
"assigned" : "2024-11-09T09:23:58.036-0600"
}
}
],
"created" : "2024-11-09T09:23:57.647-0600"
},
"_id" : {
"$oid" : "67256c577d724e129734513c"
},
"collection" : "SlowControlsDashboardSupervisorTable",
"aliases" : {
"active" : [

],
"history" : [

]
},
"runs" : [

],
"attachments" : [

],
"configtype" : "notprovided"
}