{
"ouid" : [
"36036ad1f6ce4deca7a01355",
"50550a69c83c42979b135826"
],
"version" : {
"0" : [
"36036ad1f6ce4deca7a01355"
],
"1" : [
"50550a69c83c42979b135826"
]
},
"configurations.name" : {
"notprovided" : [
"36036ad1f6ce4deca7a01355",
"50550a69c83c42979b135826"
],
"BurninBoxConfiguration_v0" : [
"36036ad1f6ce4deca7a01355"
],
"BurninBoxConfiguration_v1" : [
"50550a69c83c42979b135826"
],
"BurninBoxConfiguration_v2" : [
"50550a69c83c42979b135826"
],
"BurninBoxConfiguration_v3" : [
"50550a69c83c42979b135826"
],
"BurninBoxConfiguration_v4" : [
"50550a69c83c42979b135826"
],
"BurninBoxConfiguration_v5" : [
"50550a69c83c42979b135826"
],
"BurninBoxConfiguration_v6" : [
"50550a69c83c42979b135826"
]
},
"entities.name" : {
"OTSROOT" : [
"36036ad1f6ce4deca7a01355",
"50550a69c83c42979b135826"
]
},
"aliases.active.name" : {

},
"runs.name" : {

},
"configurations.assigned" : {
"notprovided" : [
"2024-08-22T17:05:40.193-0500",
"2024-08-22T17:05:40.874-0500"
],
"BurninBoxConfiguration_v0" : [
"2024-08-22T17:05:40.562-0500"
],
"BurninBoxConfiguration_v1" : [
"2024-08-22T17:05:41.037-0500"
],
"BurninBoxConfiguration_v2" : [
"2024-08-22T17:15:54.770-0500"
],
"BurninBoxConfiguration_v3" : [
"2024-10-10T15:24:10.737-0500"
],
"BurninBoxConfiguration_v4" : [
"2024-10-10T15:27:41.969-0500"
],
"BurninBoxConfiguration_v5" : [
"2024-10-10T15:44:13.443-0500"
],
"BurninBoxConfiguration_v6" : [
"2024-10-10T15:51:49.849-0500"
]
}
}