{
"document" : {
"data" : {
"NAME" : "RAW_DATA_SAVER_CONSUMER_TABLE",
"COMMENT" : "Records for raw data savers.",
"AUTHOR" : "admin",
"CREATION_TIME" : 1536269469,
"COL_TYPES" : {
"PROCESSOR_UID" : "STRING",
"FILE_PATH" : "STRING",
"RADIX_FILE_NAME" : "STRING",
"MAX_FILE_SIZE" : "NUMBER",
"COMMENT_DESCRIPTION" : "STRING",
"AUTHOR" : "STRING",
"RECORD_INSERTION_TIME" : "TIMESTAMP WITH TIMEZONE"
},
"DATA_SET" : [
{
"PROCESSOR_UID" : "BurninBox0_DB0_RawDataSaver0",
"FILE_PATH" : "${OTSDAQ_DATA}/BurninBoxData",
"RADIX_FILE_NAME" : "RawDataSaver0BurninBox0",
"MAX_FILE_SIZE" : "1000",
"COMMENT_DESCRIPTION" : "",
"AUTHOR" : "admin",
"RECORD_INSERTION_TIME" : "1536269469"
}
]
},
"metadata" : {

},
"search" : [

]
},
"comments" : [

],
"origin" : {
"source" : "template",
"name" : "notprovided",
"format" : "json",
"created" : "2024-11-09T09:23:56.705-0600",
"rawdata" : [

]
},
"version" : "0",
"entities" : [
{
"name" : "OTSROOT",
"assigned" : "2024-11-09T09:23:56.705-0600"
}
],
"configurations" : [
{
"name" : "notprovided",
"assigned" : "2024-11-09T09:23:56.705-0600"
},
{
"name" : "BurninBoxConfiguration_v0",
"assigned" : "2024-11-09T09:23:57.037-0600"
},
{
"name" : "BurninBoxConfiguration_v1",
"assigned" : "2024-11-09T09:23:57.498-0600"
}
],
"changelog" : "notprovided",
"bookkeeping" : {
"isdeleted" : false,
"isreadonly" : false,
"updates" : [
{
"event" : "addConfiguration",
"timestamp" : "2024-11-09T09:23:56.705-0600",
"value" : {
"name" : "notprovided",
"assigned" : "2024-11-09T09:23:56.705-0600"
}
},
{
"event" : "setVersion",
"timestamp" : "2024-11-09T09:23:56.705-0600",
"value" : {
"name" : "0",
"assigned" : "2024-11-09T09:23:56.705-0600"
}
},
{
"event" : "setCollection",
"timestamp" : "2024-11-09T09:23:56.705-0600",
"value" : {
"name" : "RawDataSaverConsumerTable",
"assigned" : "2024-11-09T09:23:56.705-0600"
}
},
{
"event" : "addEntity",
"timestamp" : "2024-11-09T09:23:56.705-0600",
"value" : {
"name" : "OTSROOT",
"assigned" : "2024-11-09T09:23:56.705-0600"
}
},
{
"event" : "addConfiguration",
"timestamp" : "2024-11-09T09:23:57.037-0600",
"value" : {
"name" : "BurninBoxConfiguration_v0",
"assigned" : "2024-11-09T09:23:57.037-0600"
}
},
{
"event" : "addConfiguration",
"timestamp" : "2024-11-09T09:23:57.498-0600",
"value" : {
"name" : "BurninBoxConfiguration_v1",
"assigned" : "2024-11-09T09:23:57.498-0600"
}
}
],
"created" : "2024-11-09T09:23:56.705-0600"
},
"_id" : {
"$oid" : "48dd358b554c44a5977c0fb1"
},
"collection" : "RawDataSaverConsumerTable",
"aliases" : {
"active" : [

],
"history" : [

]
},
"runs" : [

],
"attachments" : [

],
"configtype" : "notprovided"
}