{
"document" : {
"data" : {
"IterateTable" : "5",
"IterationCommandBeginLabelTable" : "5",
"IterationCommandChooseFSMTable" : "5",
"IterationCommandConfigureAliasTable" : "5",
"IterationCommandConfigureGroupTable" : "5",
"IterationCommandExecuteFEMacroTable" : "5",
"IterationCommandExecuteMacroTable" : "5",
"IterationCommandMacroDimensionalLoopParameterTable" : "6",
"IterationCommandMacroDimensionalLoopTable" : "6",
"IterationCommandModifyGroupTable" : "5",
"IterationCommandRepeatLabelTable" : "5",
"IterationCommandRunTable" : "5",
"IterationPlanTable" : "5",
"IterationTargetTable" : "5",
"TableGroupMetadata" : "14"
},
"metadata" : {

},
"search" : [

]
},
"comments" : [

],
"origin" : {
"source" : "template",
"name" : "notprovided",
"format" : "json",
"created" : "2024-12-16T10:45:57.879-0600",
"rawdata" : [

]
},
"version" : "7",
"entities" : [
{
"name" : "OTSROOT",
"assigned" : "2024-12-16T10:45:57.879-0600"
}
],
"configurations" : [
{
"name" : "notprovided",
"assigned" : "2024-12-16T10:45:57.879-0600"
}
],
"changelog" : "notprovided",
"bookkeeping" : {
"isdeleted" : false,
"isreadonly" : false,
"updates" : [
{
"event" : "addConfiguration",
"timestamp" : "2024-12-16T10:45:57.879-0600",
"value" : {
"name" : "notprovided",
"assigned" : "2024-12-16T10:45:57.879-0600"
}
},
{
"event" : "setVersion",
"timestamp" : "2024-12-16T10:45:57.879-0600",
"value" : {
"name" : "7",
"assigned" : "2024-12-16T10:45:57.879-0600"
}
},
{
"event" : "setCollection",
"timestamp" : "2024-12-16T10:45:57.879-0600",
"value" : {
"name" : "GroupCache_iterateDefaultGroup",
"assigned" : "2024-12-16T10:45:57.879-0600"
}
},
{
"event" : "addEntity",
"timestamp" : "2024-12-16T10:45:57.879-0600",
"value" : {
"name" : "OTSROOT",
"assigned" : "2024-12-16T10:45:57.879-0600"
}
}
],
"created" : "2024-12-16T10:45:57.879-0600"
},
"_id" : {
"$oid" : "12b5fe43579f4040aa858612"
},
"collection" : "GroupCache_iterateDefaultGroup",
"aliases" : {
"active" : [

],
"history" : [

]
},
"runs" : [

],
"attachments" : [

],
"configtype" : "notprovided"
}