{
"document" : {
"data" : {
"NAME" : "DQM_MIDDLEWARE_MONITOR_HISTOS_CONSUMER_TABLE",
"COMMENT" : "No comment.",
"AUTHOR" : "admin",
"CREATION_TIME" : 1730924432,
"COL_TYPES" : {
"PROCESSOR_UID" : "STRING",
"FILE_PATH" : "STRING",
"RADIX_FILE_NAME" : "STRING",
"SAVE_FILE" : "STRING",
"CONFIGURATION_DIR" : "STRING",
"CONFIGURATION_NAME" : "STRING",
"COMMENT_DESCRIPTION" : "STRING",
"AUTHOR" : "STRING",
"RECORD_INSERTION_TIME" : "TIMESTAMP WITH TIMEZONE"
},
"DATA_SET" : [
{
"PROCESSOR_UID" : "VBTrackerMonitorDQMHistos",
"FILE_PATH" : "${OTSDAQ_DATA}/TrackerHistos",
"RADIX_FILE_NAME" : "TrackerMonitorHistos_",
"SAVE_FILE" : "Yes",
"CONFIGURATION_DIR" : "${PH2ACF_BASE_DIR}/settings",
"CONFIGURATION_NAME" : "10Modules_Burnin.xml",
"COMMENT_DESCRIPTION" : "No Comment",
"AUTHOR" : "admin",
"RECORD_INSERTION_TIME" : "1730924403"
}
]
},
"metadata" : {

},
"search" : [

]
},
"comments" : [

],
"origin" : {
"source" : "template",
"name" : "notprovided",
"format" : "json",
"created" : "2024-11-09T09:23:57.174-0600",
"rawdata" : [

]
},
"version" : "1",
"entities" : [
{
"name" : "OTSROOT",
"assigned" : "2024-11-09T09:23:57.174-0600"
}
],
"configurations" : [
{
"name" : "notprovided",
"assigned" : "2024-11-09T09:23:57.174-0600"
},
{
"name" : "BurninBoxConfiguration_v1",
"assigned" : "2024-11-09T09:23:57.328-0600"
},
{
"name" : "BurninBoxConfiguration_v2",
"assigned" : "2024-12-02T15:21:28.665-0600"
},
{
"name" : "BurninBoxConfiguration_v3",
"assigned" : "2024-12-02T15:58:39.864-0600"
},
{
"name" : "BurninBoxConfiguration_v4",
"assigned" : "2024-12-03T13:28:14.033-0600"
},
{
"name" : "BurninBoxConfiguration_v5",
"assigned" : "2024-12-16T10:47:06.471-0600"
},
{
"name" : "BurninBoxConfiguration_v6",
"assigned" : "2024-12-17T07:24:02.133-0600"
},
{
"name" : "BurninBoxConfiguration_v7",
"assigned" : "2024-12-18T10:28:55.966-0600"
},
{
"name" : "BurninBoxConfiguration_v8",
"assigned" : "2024-12-18T10:53:15.690-0600"
},
{
"name" : "BurninBoxConfiguration_v9",
"assigned" : "2024-12-18T12:23:21.326-0600"
},
{
"name" : "BurninBoxConfiguration_v10",
"assigned" : "2024-12-19T21:55:17.505-0600"
}
],
"changelog" : "notprovided",
"bookkeeping" : {
"isdeleted" : false,
"isreadonly" : false,
"updates" : [
{
"event" : "addConfiguration",
"timestamp" : "2024-11-09T09:23:57.174-0600",
"value" : {
"name" : "notprovided",
"assigned" : "2024-11-09T09:23:57.174-0600"
}
},
{
"event" : "setVersion",
"timestamp" : "2024-11-09T09:23:57.174-0600",
"value" : {
"name" : "1",
"assigned" : "2024-11-09T09:23:57.174-0600"
}
},
{
"event" : "setCollection",
"timestamp" : "2024-11-09T09:23:57.174-0600",
"value" : {
"name" : "DQMMiddlewareMonitorHistosConsumerTable",
"assigned" : "2024-11-09T09:23:57.174-0600"
}
},
{
"event" : "addEntity",
"timestamp" : "2024-11-09T09:23:57.174-0600",
"value" : {
"name" : "OTSROOT",
"assigned" : "2024-11-09T09:23:57.174-0600"
}
},
{
"event" : "addConfiguration",
"timestamp" : "2024-11-09T09:23:57.328-0600",
"value" : {
"name" : "BurninBoxConfiguration_v1",
"assigned" : "2024-11-09T09:23:57.328-0600"
}
},
{
"event" : "addConfiguration",
"timestamp" : "2024-12-02T15:21:28.665-0600",
"value" : {
"name" : "BurninBoxConfiguration_v2",
"assigned" : "2024-12-02T15:21:28.665-0600"
}
},
{
"event" : "addConfiguration",
"timestamp" : "2024-12-02T15:58:39.864-0600",
"value" : {
"name" : "BurninBoxConfiguration_v3",
"assigned" : "2024-12-02T15:58:39.864-0600"
}
},
{
"event" : "addConfiguration",
"timestamp" : "2024-12-03T13:28:14.033-0600",
"value" : {
"name" : "BurninBoxConfiguration_v4",
"assigned" : "2024-12-03T13:28:14.033-0600"
}
},
{
"event" : "addConfiguration",
"timestamp" : "2024-12-16T10:47:06.471-0600",
"value" : {
"name" : "BurninBoxConfiguration_v5",
"assigned" : "2024-12-16T10:47:06.471-0600"
}
},
{
"event" : "addConfiguration",
"timestamp" : "2024-12-17T07:24:02.133-0600",
"value" : {
"name" : "BurninBoxConfiguration_v6",
"assigned" : "2024-12-17T07:24:02.133-0600"
}
},
{
"event" : "addConfiguration",
"timestamp" : "2024-12-18T10:28:55.966-0600",
"value" : {
"name" : "BurninBoxConfiguration_v7",
"assigned" : "2024-12-18T10:28:55.966-0600"
}
},
{
"event" : "addConfiguration",
"timestamp" : "2024-12-18T10:53:15.690-0600",
"value" : {
"name" : "BurninBoxConfiguration_v8",
"assigned" : "2024-12-18T10:53:15.690-0600"
}
},
{
"event" : "addConfiguration",
"timestamp" : "2024-12-18T12:23:21.326-0600",
"value" : {
"name" : "BurninBoxConfiguration_v9",
"assigned" : "2024-12-18T12:23:21.326-0600"
}
},
{
"event" : "addConfiguration",
"timestamp" : "2024-12-19T21:55:17.505-0600",
"value" : {
"name" : "BurninBoxConfiguration_v10",
"assigned" : "2024-12-19T21:55:17.505-0600"
}
}
],
"created" : "2024-11-09T09:23:57.174-0600"
},
"_id" : {
"$oid" : "25bf0b2b99e546ef9cf84aa9"
},
"collection" : "DQMMiddlewareMonitorHistosConsumerTable",
"aliases" : {
"active" : [

],
"history" : [

]
},
"runs" : [

],
"attachments" : [

],
"configtype" : "notprovided"
}