{
"ouid" : [
"d830c0ab58864f7b9cd21841"
],
"version" : {
"5" : [
"d830c0ab58864f7b9cd21841"
]
},
"configurations.name" : {
"notprovided" : [
"d830c0ab58864f7b9cd21841"
],
"iterateDefaultGroup_v5" : [
"d830c0ab58864f7b9cd21841"
]
},
"entities.name" : {
"OTSROOT" : [
"d830c0ab58864f7b9cd21841"
]
},
"aliases.active.name" : {

},
"runs.name" : {

},
"configurations.assigned" : {
"notprovided" : [
"2024-11-09T09:23:58.485-0600"
],
"iterateDefaultGroup_v5" : [
"2024-11-09T09:23:58.714-0600"
]
}
}