{
"ouid" : [
"3c5a0ac265c640f3a7d94676",
"774072eb59814d0cb928c6a8"
],
"version" : {
"2" : [
"774072eb59814d0cb928c6a8"
],
"3" : [
"3c5a0ac265c640f3a7d94676"
]
},
"configurations.name" : {
"notprovided" : [
"3c5a0ac265c640f3a7d94676",
"774072eb59814d0cb928c6a8"
],
"DefaultContext_v2" : [
"774072eb59814d0cb928c6a8"
],
"DefaultContext_v3" : [
"3c5a0ac265c640f3a7d94676"
]
},
"entities.name" : {
"OTSROOT" : [
"3c5a0ac265c640f3a7d94676",
"774072eb59814d0cb928c6a8"
]
},
"aliases.active.name" : {

},
"runs.name" : {

},
"configurations.assigned" : {
"notprovided" : [
"2024-11-09T09:23:57.720-0600",
"2024-11-09T09:23:57.954-0600"
],
"DefaultContext_v2" : [
"2024-11-09T09:23:57.879-0600"
],
"DefaultContext_v3" : [
"2024-11-09T09:23:58.109-0600"
]
}
}