{
"document" : {
"data" : {
"IterateTable" : "5",
"IterationCommandBeginLabelTable" : "5",
"IterationCommandChooseFSMTable" : "5",
"IterationCommandConfigureAliasTable" : "5",
"IterationCommandConfigureGroupTable" : "5",
"IterationCommandExecuteFEMacroTable" : "5",
"IterationCommandExecuteMacroTable" : "5",
"IterationCommandMacroDimensionalLoopParameterTable" : "6",
"IterationCommandMacroDimensionalLoopTable" : "5",
"IterationCommandModifyGroupTable" : "5",
"IterationCommandRepeatLabelTable" : "5",
"IterationCommandRunTable" : "5",
"IterationPlanTable" : "5",
"IterationTargetTable" : "5",
"TableGroupMetadata" : "8"
},
"metadata" : {

},
"search" : [

]
},
"comments" : [

],
"origin" : {
"source" : "template",
"name" : "notprovided",
"format" : "json",
"created" : "2024-10-10T15:17:33.427-0500",
"rawdata" : [

]
},
"version" : "6",
"entities" : [
{
"name" : "OTSROOT",
"assigned" : "2024-10-10T15:17:33.428-0500"
}
],
"configurations" : [
{
"name" : "notprovided",
"assigned" : "2024-10-10T15:17:33.427-0500"
}
],
"changelog" : "notprovided",
"bookkeeping" : {
"isdeleted" : false,
"isreadonly" : false,
"updates" : [
{
"event" : "addConfiguration",
"timestamp" : "2024-10-10T15:17:33.427-0500",
"value" : {
"name" : "notprovided",
"assigned" : "2024-10-10T15:17:33.427-0500"
}
},
{
"event" : "setVersion",
"timestamp" : "2024-10-10T15:17:33.427-0500",
"value" : {
"name" : "6",
"assigned" : "2024-10-10T15:17:33.427-0500"
}
},
{
"event" : "setCollection",
"timestamp" : "2024-10-10T15:17:33.427-0500",
"value" : {
"name" : "GroupCache_iterateDefaultGroup",
"assigned" : "2024-10-10T15:17:33.427-0500"
}
},
{
"event" : "addEntity",
"timestamp" : "2024-10-10T15:17:33.428-0500",
"value" : {
"name" : "OTSROOT",
"assigned" : "2024-10-10T15:17:33.428-0500"
}
}
],
"created" : "2024-10-10T15:17:33.427-0500"
},
"_id" : {
"$oid" : "f092c75110904feca5c8d45a"
},
"collection" : "GroupCache_iterateDefaultGroup",
"aliases" : {
"active" : [

],
"history" : [

]
},
"runs" : [

],
"attachments" : [

],
"configtype" : "notprovided"
}