{
"ouid" : [
"9413a4580efd4a45b4057394",
"aaf430a6f2a34fc088c9c760"
],
"version" : {
"2" : [
"9413a4580efd4a45b4057394"
],
"3" : [
"aaf430a6f2a34fc088c9c760"
]
},
"configurations.name" : {
"notprovided" : [
"9413a4580efd4a45b4057394",
"aaf430a6f2a34fc088c9c760"
],
"DefaultContext_v2" : [
"9413a4580efd4a45b4057394"
],
"DefaultContext_v3" : [
"aaf430a6f2a34fc088c9c760"
]
},
"entities.name" : {
"OTSROOT" : [
"9413a4580efd4a45b4057394",
"aaf430a6f2a34fc088c9c760"
]
},
"aliases.active.name" : {

},
"runs.name" : {

},
"configurations.assigned" : {
"notprovided" : [
"2024-11-09T09:23:57.576-0600",
"2024-11-09T09:23:57.918-0600"
],
"DefaultContext_v2" : [
"2024-11-09T09:23:57.749-0600"
],
"DefaultContext_v3" : [
"2024-11-09T09:23:57.979-0600"
]
}
}