{
"ouid" : [
"2d3ceb7de1414184975312ca"
],
"version" : {
"5" : [
"2d3ceb7de1414184975312ca"
]
},
"configurations.name" : {
"notprovided" : [
"2d3ceb7de1414184975312ca"
],
"iterateDefaultGroup_v5" : [
"2d3ceb7de1414184975312ca"
],
"iterateDefaultGroup_v6" : [
"2d3ceb7de1414184975312ca"
],
"iterateDefaultGroup_v7" : [
"2d3ceb7de1414184975312ca"
],
"iterateDefaultGroup_v8" : [
"2d3ceb7de1414184975312ca"
],
"iterateDefaultGroup_v9" : [
"2d3ceb7de1414184975312ca"
],
"iterateDefaultGroup_v10" : [
"2d3ceb7de1414184975312ca"
],
"iterateDefaultGroup_v11" : [
"2d3ceb7de1414184975312ca"
],
"iterateDefaultGroup_v12" : [
"2d3ceb7de1414184975312ca"
],
"iterateDefaultGroup_v13" : [
"2d3ceb7de1414184975312ca"
],
"iterateDefaultGroup_v14" : [
"2d3ceb7de1414184975312ca"
],
"iterateDefaultGroup_v15" : [
"2d3ceb7de1414184975312ca"
]
},
"entities.name" : {
"OTSROOT" : [
"2d3ceb7de1414184975312ca"
]
},
"aliases.active.name" : {

},
"runs.name" : {

},
"configurations.assigned" : {
"notprovided" : [
"2024-11-09T09:23:58.282-0600"
],
"iterateDefaultGroup_v5" : [
"2024-11-09T09:23:58.544-0600"
],
"iterateDefaultGroup_v6" : [
"2024-11-12T14:13:08.836-0600"
],
"iterateDefaultGroup_v7" : [
"2024-12-16T10:45:57.242-0600"
],
"iterateDefaultGroup_v8" : [
"2024-12-16T10:47:41.862-0600"
],
"iterateDefaultGroup_v9" : [
"2024-12-16T15:31:17.932-0600"
],
"iterateDefaultGroup_v10" : [
"2024-12-17T15:07:45.372-0600"
],
"iterateDefaultGroup_v11" : [
"2024-12-17T23:45:26.697-0600"
],
"iterateDefaultGroup_v12" : [
"2024-12-18T10:28:22.841-0600"
],
"iterateDefaultGroup_v13" : [
"2024-12-18T12:45:26.567-0600"
],
"iterateDefaultGroup_v14" : [
"2024-12-19T18:17:05.053-0600"
],
"iterateDefaultGroup_v15" : [
"2024-12-19T18:17:59.382-0600"
]
}
}