{
"document" : {
"data" : {
"DesktopIconTable" : "2",
"DesktopWindowParameterTable" : "2",
"GatewaySupervisorTable" : "2",
"MessageFacilityTable" : "2",
"SlowControlsDashboardSupervisorTable" : "2",
"StateMachineTable" : "2",
"TableGroupMetadata" : "2",
"XDAQApplicationPropertyTable" : "2",
"XDAQApplicationTable" : "2",
"XDAQContextTable" : "2"
},
"metadata" : {

},
"search" : [

]
},
"comments" : [

],
"origin" : {
"source" : "template",
"name" : "notprovided",
"format" : "json",
"created" : "2024-11-09T09:23:57.894-0600",
"rawdata" : [

]
},
"version" : "2",
"entities" : [
{
"name" : "OTSROOT",
"assigned" : "2024-11-09T09:23:57.894-0600"
}
],
"configurations" : [
{
"name" : "notprovided",
"assigned" : "2024-11-09T09:23:57.894-0600"
}
],
"changelog" : "notprovided",
"bookkeeping" : {
"isdeleted" : false,
"isreadonly" : false,
"updates" : [
{
"event" : "addConfiguration",
"timestamp" : "2024-11-09T09:23:57.894-0600",
"value" : {
"name" : "notprovided",
"assigned" : "2024-11-09T09:23:57.894-0600"
}
},
{
"event" : "setVersion",
"timestamp" : "2024-11-09T09:23:57.894-0600",
"value" : {
"name" : "2",
"assigned" : "2024-11-09T09:23:57.894-0600"
}
},
{
"event" : "setCollection",
"timestamp" : "2024-11-09T09:23:57.894-0600",
"value" : {
"name" : "GroupCache_DefaultContext",
"assigned" : "2024-11-09T09:23:57.894-0600"
}
},
{
"event" : "addEntity",
"timestamp" : "2024-11-09T09:23:57.894-0600",
"value" : {
"name" : "OTSROOT",
"assigned" : "2024-11-09T09:23:57.894-0600"
}
}
],
"created" : "2024-11-09T09:23:57.894-0600"
},
"_id" : {
"$oid" : "1be01dce369241e7bc2b66a0"
},
"collection" : "GroupCache_DefaultContext",
"aliases" : {
"active" : [

],
"history" : [

]
},
"runs" : [

],
"attachments" : [

],
"configtype" : "notprovided"
}