{
"ouid" : [
"67256c577d724e129734513c"
],
"version" : {
"2" : [
"67256c577d724e129734513c"
]
},
"configurations.name" : {
"notprovided" : [
"67256c577d724e129734513c"
],
"DefaultContext_v2" : [
"67256c577d724e129734513c"
],
"DefaultContext_v3" : [
"67256c577d724e129734513c"
]
},
"entities.name" : {
"OTSROOT" : [
"67256c577d724e129734513c"
]
},
"aliases.active.name" : {

},
"runs.name" : {

},
"configurations.assigned" : {
"notprovided" : [
"2024-11-09T09:23:57.647-0600"
],
"DefaultContext_v2" : [
"2024-11-09T09:23:57.805-0600"
],
"DefaultContext_v3" : [
"2024-11-09T09:23:58.036-0600"
]
}
}