{
"document" : {
"data" : {
"NAME" : "DATA_PROCESSOR_TABLE",
"COMMENT" : "No comment.",
"AUTHOR" : "admin",
"CREATION_TIME" : 1680636655,
"COL_TYPES" : {
"DATA_PROCESSOR_GROUP_ID" : "STRING",
"PROCESSOR_UID" : "STRING",
"PROCESSOR_TYPE" : "STRING",
"PROCESSOR_PLUGIN_NAME" : "STRING",
"LINK_TO_PROCESSOR_TABLE" : "STRING",
"LINK_TO_PROCESSOR_UID" : "STRING",
"STATUS" : "STRING",
"COMMENT_DESCRIPTION" : "STRING",
"AUTHOR" : "STRING",
"RECORD_INSERTION_TIME" : "TIMESTAMP WITH TIMEZONE"
},
"DATA_SET" : [
{
"DATA_PROCESSOR_GROUP_ID" : "VisualizerBurninBoxBuffer",
"PROCESSOR_UID" : "VBBurninBoxListener",
"PROCESSOR_TYPE" : "Producer",
"PROCESSOR_PLUGIN_NAME" : "TCPDataReceiverProducer",
"LINK_TO_PROCESSOR_TABLE" : "TCPDataReceiverProducerTable",
"LINK_TO_PROCESSOR_UID" : "VBBurninBoxListener",
"STATUS" : "On",
"COMMENT_DESCRIPTION" : "",
"AUTHOR" : "admin",
"RECORD_INSERTION_TIME" : "1625847506"
},
{
"DATA_PROCESSOR_GROUP_ID" : "VisualizerBurninBoxBuffer",
"PROCESSOR_UID" : "VBBurninBoxDQMHistos",
"PROCESSOR_TYPE" : "Consumer",
"PROCESSOR_PLUGIN_NAME" : "BurninBoxDQMHistosConsumer",
"LINK_TO_PROCESSOR_TABLE" : "DQMBurninBoxHistosConsumerTable",
"LINK_TO_PROCESSOR_UID" : "VBBurninBoxDQMHistos",
"STATUS" : "On",
"COMMENT_DESCRIPTION" : "",
"AUTHOR" : "admin",
"RECORD_INSERTION_TIME" : "1680634315"
},
{
"DATA_PROCESSOR_GROUP_ID" : "VisualizerPowerSupplyBuffer",
"PROCESSOR_UID" : "VBPowerSupplyListener",
"PROCESSOR_TYPE" : "Producer",
"PROCESSOR_PLUGIN_NAME" : "TCPDataReceiverProducer",
"LINK_TO_PROCESSOR_TABLE" : "TCPDataReceiverProducerTable",
"LINK_TO_PROCESSOR_UID" : "VBPowerSupplyListener",
"STATUS" : "On",
"COMMENT_DESCRIPTION" : "",
"AUTHOR" : "admin",
"RECORD_INSERTION_TIME" : "1625847506"
},
{
"DATA_PROCESSOR_GROUP_ID" : "VisualizerPowerSupplyBuffer",
"PROCESSOR_UID" : "VBPowerSupplyDQMHistos",
"PROCESSOR_TYPE" : "Consumer",
"PROCESSOR_PLUGIN_NAME" : "DQMPowerSupplyHistoConsumer",
"LINK_TO_PROCESSOR_TABLE" : "DQMPowerSupplyConsumerTable",
"LINK_TO_PROCESSOR_UID" : "VBPowerSupplyDQMHistos",
"STATUS" : "On",
"COMMENT_DESCRIPTION" : "",
"AUTHOR" : "admin",
"RECORD_INSERTION_TIME" : "1625847506"
},
{
"DATA_PROCESSOR_GROUP_ID" : "VisualizerTrackerBuffer",
"PROCESSOR_UID" : "VBTrackerListener",
"PROCESSOR_TYPE" : "Producer",
"PROCESSOR_PLUGIN_NAME" : "TCPDataReceiverProducer",
"LINK_TO_PROCESSOR_TABLE" : "TCPDataReceiverProducerTable",
"LINK_TO_PROCESSOR_UID" : "VBTrackerListener",
"STATUS" : "On",
"COMMENT_DESCRIPTION" : "",
"AUTHOR" : "admin",
"RECORD_INSERTION_TIME" : "1680631950"
},
{
"DATA_PROCESSOR_GROUP_ID" : "VisualizerTrackerBuffer",
"PROCESSOR_UID" : "VBTrackerDQMHistos",
"PROCESSOR_TYPE" : "Consumer",
"PROCESSOR_PLUGIN_NAME" : "DQMMiddlewareHistosConsumer",
"LINK_TO_PROCESSOR_TABLE" : "DQMMiddlewareHistosConsumerTable",
"LINK_TO_PROCESSOR_UID" : "VBTrackerDQMHistos",
"STATUS" : "On",
"COMMENT_DESCRIPTION" : "",
"AUTHOR" : "admin",
"RECORD_INSERTION_TIME" : "1680631950"
},
{
"DATA_PROCESSOR_GROUP_ID" : "VisualizerTrackerMonitorBuffer",
"PROCESSOR_UID" : "VBTrackerMonitorListener",
"PROCESSOR_TYPE" : "Producer",
"PROCESSOR_PLUGIN_NAME" : "TCPDataReceiverProducer",
"LINK_TO_PROCESSOR_TABLE" : "TCPDataReceiverProducerTable",
"LINK_TO_PROCESSOR_UID" : "VBTrackerMonitorListener",
"STATUS" : "On",
"COMMENT_DESCRIPTION" : "",
"AUTHOR" : "admin",
"RECORD_INSERTION_TIME" : "1680631950"
},
{
"DATA_PROCESSOR_GROUP_ID" : "VisualizerTrackerMonitorBuffer",
"PROCESSOR_UID" : "VBTrackerMonitorDQMHistos",
"PROCESSOR_TYPE" : "Consumer",
"PROCESSOR_PLUGIN_NAME" : "DQMMiddlewareMonitorHistosConsumer",
"LINK_TO_PROCESSOR_TABLE" : "DQMMiddlewareMonitorHistosConsumerTable",
"LINK_TO_PROCESSOR_UID" : "VBTrackerMonitorDQMHistos",
"STATUS" : "On",
"COMMENT_DESCRIPTION" : "",
"AUTHOR" : "admin",
"RECORD_INSERTION_TIME" : "1680636655"
}
]
},
"metadata" : {

},
"search" : [

]
},
"comments" : [

],
"origin" : {
"source" : "template",
"name" : "notprovided",
"format" : "json",
"created" : "2024-08-22T17:05:40.246-0500",
"rawdata" : [

]
},
"version" : "0",
"entities" : [
{
"name" : "OTSROOT",
"assigned" : "2024-08-22T17:05:40.246-0500"
}
],
"configurations" : [
{
"name" : "notprovided",
"assigned" : "2024-08-22T17:05:40.246-0500"
},
{
"name" : "BurninBoxConfiguration_v0",
"assigned" : "2024-08-22T17:05:40.603-0500"
}
],
"changelog" : "notprovided",
"bookkeeping" : {
"isdeleted" : false,
"isreadonly" : false,
"updates" : [
{
"event" : "addConfiguration",
"timestamp" : "2024-08-22T17:05:40.246-0500",
"value" : {
"name" : "notprovided",
"assigned" : "2024-08-22T17:05:40.246-0500"
}
},
{
"event" : "setVersion",
"timestamp" : "2024-08-22T17:05:40.246-0500",
"value" : {
"name" : "0",
"assigned" : "2024-08-22T17:05:40.246-0500"
}
},
{
"event" : "setCollection",
"timestamp" : "2024-08-22T17:05:40.246-0500",
"value" : {
"name" : "DataProcessorTable",
"assigned" : "2024-08-22T17:05:40.246-0500"
}
},
{
"event" : "addEntity",
"timestamp" : "2024-08-22T17:05:40.246-0500",
"value" : {
"name" : "OTSROOT",
"assigned" : "2024-08-22T17:05:40.246-0500"
}
},
{
"event" : "addConfiguration",
"timestamp" : "2024-08-22T17:05:40.603-0500",
"value" : {
"name" : "BurninBoxConfiguration_v0",
"assigned" : "2024-08-22T17:05:40.603-0500"
}
}
],
"created" : "2024-08-22T17:05:40.246-0500"
},
"_id" : {
"$oid" : "183b92becf574f95933c919a"
},
"collection" : "DataProcessorTable",
"aliases" : {
"active" : [

],
"history" : [

]
},
"runs" : [

],
"attachments" : [

],
"configtype" : "notprovided"
}