{
"document" : {
"data" : {
"NAME" : "FECMS_BURNIN_BOX_INTERFACE_TABLE",
"COMMENT" : "No comment.",
"AUTHOR" : "admin",
"CREATION_TIME" : 1603142161,
"COL_TYPES" : {
"INTERFACE_ID" : "STRING",
"STATUS" : "STRING",
"INTERFACE_IP_ADDRESS" : "STRING",
"INTERFACE_PORT" : "NUMBER",
"HOST_IP_ADDRESS" : "STRING",
"HOST_PORT" : "NUMBER",
"DATA_PUBLISHER_PORT" : "NUMBER",
"LINK_TO_BURNIN_BOX_CYCLE_TABLE" : "STRING",
"LINK_TO_BURNIN_BOX_CYCLE_GROUP_ID" : "STRING",
"COMMENT_DESCRIPTION" : "STRING",
"AUTHOR" : "STRING",
"RECORD_INSERTION_TIME" : "TIMESTAMP WITH TIMEZONE"
},
"DATA_SET" : [
{
"INTERFACE_ID" : "FEBurninBoxInterface",
"STATUS" : "On",
"INTERFACE_IP_ADDRESS" : "127.0.0.1",
"INTERFACE_PORT" : "5001",
"HOST_IP_ADDRESS" : "127.0.0.1",
"HOST_PORT" : "10000",
"DATA_PUBLISHER_PORT" : "50000",
"LINK_TO_BURNIN_BOX_CYCLE_TABLE" : "BurninBoxCycleTable",
"LINK_TO_BURNIN_BOX_CYCLE_GROUP_ID" : "ModuleTestingCycle",
"COMMENT_DESCRIPTION" : "No Comment",
"AUTHOR" : "admin",
"RECORD_INSERTION_TIME" : "1603142150"
}
]
},
"metadata" : {

},
"search" : [

]
},
"comments" : [

],
"origin" : {
"source" : "template",
"name" : "notprovided",
"format" : "json",
"created" : "2024-11-09T09:23:56.581-0600",
"rawdata" : [

]
},
"version" : "0",
"entities" : [
{
"name" : "OTSROOT",
"assigned" : "2024-11-09T09:23:56.581-0600"
}
],
"configurations" : [
{
"name" : "notprovided",
"assigned" : "2024-11-09T09:23:56.581-0600"
},
{
"name" : "BurninBoxConfiguration_v0",
"assigned" : "2024-11-09T09:23:56.936-0600"
},
{
"name" : "BurninBoxConfiguration_v1",
"assigned" : "2024-11-09T09:23:57.398-0600"
},
{
"name" : "BurninBoxConfiguration_v2",
"assigned" : "2024-12-02T15:21:28.753-0600"
},
{
"name" : "BurninBoxConfiguration_v3",
"assigned" : "2024-12-02T15:58:39.947-0600"
},
{
"name" : "BurninBoxConfiguration_v4",
"assigned" : "2024-12-03T13:28:14.112-0600"
},
{
"name" : "BurninBoxConfiguration_v5",
"assigned" : "2024-12-16T10:47:06.693-0600"
},
{
"name" : "BurninBoxConfiguration_v6",
"assigned" : "2024-12-17T07:24:02.378-0600"
},
{
"name" : "BurninBoxConfiguration_v7",
"assigned" : "2024-12-18T10:28:56.204-0600"
},
{
"name" : "BurninBoxConfiguration_v8",
"assigned" : "2024-12-18T10:53:15.936-0600"
},
{
"name" : "BurninBoxConfiguration_v9",
"assigned" : "2024-12-18T12:23:21.619-0600"
},
{
"name" : "BurninBoxConfiguration_v10",
"assigned" : "2024-12-19T21:55:17.727-0600"
}
],
"changelog" : "notprovided",
"bookkeeping" : {
"isdeleted" : false,
"isreadonly" : false,
"updates" : [
{
"event" : "addConfiguration",
"timestamp" : "2024-11-09T09:23:56.581-0600",
"value" : {
"name" : "notprovided",
"assigned" : "2024-11-09T09:23:56.581-0600"
}
},
{
"event" : "setVersion",
"timestamp" : "2024-11-09T09:23:56.581-0600",
"value" : {
"name" : "0",
"assigned" : "2024-11-09T09:23:56.581-0600"
}
},
{
"event" : "setCollection",
"timestamp" : "2024-11-09T09:23:56.581-0600",
"value" : {
"name" : "FECMSBurninBoxInterfaceTable",
"assigned" : "2024-11-09T09:23:56.581-0600"
}
},
{
"event" : "addEntity",
"timestamp" : "2024-11-09T09:23:56.581-0600",
"value" : {
"name" : "OTSROOT",
"assigned" : "2024-11-09T09:23:56.581-0600"
}
},
{
"event" : "addConfiguration",
"timestamp" : "2024-11-09T09:23:56.936-0600",
"value" : {
"name" : "BurninBoxConfiguration_v0",
"assigned" : "2024-11-09T09:23:56.936-0600"
}
},
{
"event" : "addConfiguration",
"timestamp" : "2024-11-09T09:23:57.398-0600",
"value" : {
"name" : "BurninBoxConfiguration_v1",
"assigned" : "2024-11-09T09:23:57.398-0600"
}
},
{
"event" : "addConfiguration",
"timestamp" : "2024-12-02T15:21:28.753-0600",
"value" : {
"name" : "BurninBoxConfiguration_v2",
"assigned" : "2024-12-02T15:21:28.753-0600"
}
},
{
"event" : "addConfiguration",
"timestamp" : "2024-12-02T15:58:39.947-0600",
"value" : {
"name" : "BurninBoxConfiguration_v3",
"assigned" : "2024-12-02T15:58:39.947-0600"
}
},
{
"event" : "addConfiguration",
"timestamp" : "2024-12-03T13:28:14.112-0600",
"value" : {
"name" : "BurninBoxConfiguration_v4",
"assigned" : "2024-12-03T13:28:14.112-0600"
}
},
{
"event" : "addConfiguration",
"timestamp" : "2024-12-16T10:47:06.693-0600",
"value" : {
"name" : "BurninBoxConfiguration_v5",
"assigned" : "2024-12-16T10:47:06.693-0600"
}
},
{
"event" : "addConfiguration",
"timestamp" : "2024-12-17T07:24:02.378-0600",
"value" : {
"name" : "BurninBoxConfiguration_v6",
"assigned" : "2024-12-17T07:24:02.378-0600"
}
},
{
"event" : "addConfiguration",
"timestamp" : "2024-12-18T10:28:56.204-0600",
"value" : {
"name" : "BurninBoxConfiguration_v7",
"assigned" : "2024-12-18T10:28:56.204-0600"
}
},
{
"event" : "addConfiguration",
"timestamp" : "2024-12-18T10:53:15.936-0600",
"value" : {
"name" : "BurninBoxConfiguration_v8",
"assigned" : "2024-12-18T10:53:15.936-0600"
}
},
{
"event" : "addConfiguration",
"timestamp" : "2024-12-18T12:23:21.619-0600",
"value" : {
"name" : "BurninBoxConfiguration_v9",
"assigned" : "2024-12-18T12:23:21.619-0600"
}
},
{
"event" : "addConfiguration",
"timestamp" : "2024-12-19T21:55:17.727-0600",
"value" : {
"name" : "BurninBoxConfiguration_v10",
"assigned" : "2024-12-19T21:55:17.727-0600"
}
}
],
"created" : "2024-11-09T09:23:56.581-0600"
},
"_id" : {
"$oid" : "b1aea0adcdfe4712ad236ee2"
},
"collection" : "FECMSBurninBoxInterfaceTable",
"aliases" : {
"active" : [

],
"history" : [

]
},
"runs" : [

],
"attachments" : [

],
"configtype" : "notprovided"
}