{
"ouid" : [
"33bbc4ba233b4ba0a1a8d88d"
],
"version" : {
"0" : [
"33bbc4ba233b4ba0a1a8d88d"
]
},
"configurations.name" : {
"notprovided" : [
"33bbc4ba233b4ba0a1a8d88d"
],
"BurninBoxConfiguration_v0" : [
"33bbc4ba233b4ba0a1a8d88d"
],
"BurninBoxConfiguration_v1" : [
"33bbc4ba233b4ba0a1a8d88d"
]
},
"entities.name" : {
"OTSROOT" : [
"33bbc4ba233b4ba0a1a8d88d"
]
},
"aliases.active.name" : {

},
"runs.name" : {

},
"configurations.assigned" : {
"notprovided" : [
"2024-11-09T09:23:56.651-0600"
],
"BurninBoxConfiguration_v0" : [
"2024-11-09T09:23:56.992-0600"
],
"BurninBoxConfiguration_v1" : [
"2024-11-09T09:23:57.453-0600"
]
}
}