{
"ouid" : [
"cc26247614d84e058426627f",
"efdfd93b002e4407b0f5f581"
],
"version" : {
"0" : [
"cc26247614d84e058426627f"
],
"1" : [
"efdfd93b002e4407b0f5f581"
]
},
"configurations.name" : {
"notprovided" : [
"cc26247614d84e058426627f",
"efdfd93b002e4407b0f5f581"
],
"BurninBoxConfiguration_v0" : [
"cc26247614d84e058426627f"
],
"BurninBoxConfiguration_v1" : [
"efdfd93b002e4407b0f5f581"
],
"BurninBoxConfiguration_v2" : [
"efdfd93b002e4407b0f5f581"
],
"BurninBoxConfiguration_v3" : [
"efdfd93b002e4407b0f5f581"
],
"BurninBoxConfiguration_v4" : [
"efdfd93b002e4407b0f5f581"
],
"BurninBoxConfiguration_v5" : [
"efdfd93b002e4407b0f5f581"
],
"BurninBoxConfiguration_v6" : [
"efdfd93b002e4407b0f5f581"
]
},
"entities.name" : {
"OTSROOT" : [
"cc26247614d84e058426627f",
"efdfd93b002e4407b0f5f581"
]
},
"aliases.active.name" : {

},
"runs.name" : {

},
"configurations.assigned" : {
"notprovided" : [
"2024-08-22T17:05:40.157-0500",
"2024-08-22T17:05:40.850-0500"
],
"BurninBoxConfiguration_v0" : [
"2024-08-22T17:05:40.536-0500"
],
"BurninBoxConfiguration_v1" : [
"2024-08-22T17:05:41.010-0500"
],
"BurninBoxConfiguration_v2" : [
"2024-08-22T17:15:54.740-0500"
],
"BurninBoxConfiguration_v3" : [
"2024-10-10T15:24:10.705-0500"
],
"BurninBoxConfiguration_v4" : [
"2024-10-10T15:27:41.934-0500"
],
"BurninBoxConfiguration_v5" : [
"2024-10-10T15:44:13.412-0500"
],
"BurninBoxConfiguration_v6" : [
"2024-10-10T15:51:49.815-0500"
]
}
}