{
"ouid" : [
"33bbc4ba233b4ba0a1a8d88d"
],
"version" : {
"0" : [
"33bbc4ba233b4ba0a1a8d88d"
]
},
"configurations.name" : {
"notprovided" : [
"33bbc4ba233b4ba0a1a8d88d"
],
"BurninBoxConfiguration_v0" : [
"33bbc4ba233b4ba0a1a8d88d"
],
"BurninBoxConfiguration_v1" : [
"33bbc4ba233b4ba0a1a8d88d"
],
"BurninBoxConfiguration_v2" : [
"33bbc4ba233b4ba0a1a8d88d"
],
"BurninBoxConfiguration_v3" : [
"33bbc4ba233b4ba0a1a8d88d"
],
"BurninBoxConfiguration_v4" : [
"33bbc4ba233b4ba0a1a8d88d"
],
"BurninBoxConfiguration_v5" : [
"33bbc4ba233b4ba0a1a8d88d"
],
"BurninBoxConfiguration_v6" : [
"33bbc4ba233b4ba0a1a8d88d"
],
"BurninBoxConfiguration_v7" : [
"33bbc4ba233b4ba0a1a8d88d"
],
"BurninBoxConfiguration_v8" : [
"33bbc4ba233b4ba0a1a8d88d"
],
"BurninBoxConfiguration_v9" : [
"33bbc4ba233b4ba0a1a8d88d"
],
"BurninBoxConfiguration_v10" : [
"33bbc4ba233b4ba0a1a8d88d"
]
},
"entities.name" : {
"OTSROOT" : [
"33bbc4ba233b4ba0a1a8d88d"
]
},
"aliases.active.name" : {

},
"runs.name" : {

},
"configurations.assigned" : {
"notprovided" : [
"2024-11-09T09:23:56.651-0600"
],
"BurninBoxConfiguration_v0" : [
"2024-11-09T09:23:56.992-0600"
],
"BurninBoxConfiguration_v1" : [
"2024-11-09T09:23:57.453-0600"
],
"BurninBoxConfiguration_v2" : [
"2024-12-02T15:21:28.821-0600"
],
"BurninBoxConfiguration_v3" : [
"2024-12-02T15:58:40.014-0600"
],
"BurninBoxConfiguration_v4" : [
"2024-12-03T13:28:14.178-0600"
],
"BurninBoxConfiguration_v5" : [
"2024-12-16T10:47:06.881-0600"
],
"BurninBoxConfiguration_v6" : [
"2024-12-17T07:24:02.534-0600"
],
"BurninBoxConfiguration_v7" : [
"2024-12-18T10:28:56.415-0600"
],
"BurninBoxConfiguration_v8" : [
"2024-12-18T10:53:16.090-0600"
],
"BurninBoxConfiguration_v9" : [
"2024-12-18T12:23:21.805-0600"
],
"BurninBoxConfiguration_v10" : [
"2024-12-19T21:55:17.942-0600"
]
}
}