{
"document" : {
"data" : {
"NAME" : "DATA_MANAGER_SUPERVISOR_TABLE",
"COMMENT" : "Data manager top-level records.",
"AUTHOR" : "admin",
"CREATION_TIME" : 1603995993,
"COL_TYPES" : {
"SUPERVISOR_UID" : "STRING",
"LINK_TO_DATA_BUFFER_TABLE" : "STRING",
"LINK_TO_DATA_BUFFER_GROUP_ID" : "STRING",
"COMMENT_DESCRIPTION" : "STRING",
"AUTHOR" : "STRING",
"RECORD_INSERTION_TIME" : "TIMESTAMP WITH TIMEZONE"
},
"DATA_SET" : [
{
"SUPERVISOR_UID" : "DataManagerSupervisorBurninBox0",
"LINK_TO_DATA_BUFFER_TABLE" : "DataBufferTable",
"LINK_TO_DATA_BUFFER_GROUP_ID" : "BurninBoxDataBuffer",
"COMMENT_DESCRIPTION" : "No Comment",
"AUTHOR" : "admin",
"RECORD_INSERTION_TIME" : "1563997625"
},
{
"SUPERVISOR_UID" : "VisualizerSupervisor",
"LINK_TO_DATA_BUFFER_TABLE" : "DataBufferTable",
"LINK_TO_DATA_BUFFER_GROUP_ID" : "VisualizerDataBuffer",
"COMMENT_DESCRIPTION" : "",
"AUTHOR" : "admin",
"RECORD_INSERTION_TIME" : "1603995993"
}
]
},
"metadata" : {

},
"search" : [

]
},
"comments" : [

],
"origin" : {
"source" : "template",
"name" : "notprovided",
"format" : "json",
"created" : "2024-11-09T09:23:56.545-0600",
"rawdata" : [

]
},
"version" : "0",
"entities" : [
{
"name" : "OTSROOT",
"assigned" : "2024-11-09T09:23:56.545-0600"
}
],
"configurations" : [
{
"name" : "notprovided",
"assigned" : "2024-11-09T09:23:56.545-0600"
},
{
"name" : "BurninBoxConfiguration_v0",
"assigned" : "2024-11-09T09:23:56.908-0600"
},
{
"name" : "BurninBoxConfiguration_v1",
"assigned" : "2024-11-09T09:23:57.369-0600"
}
],
"changelog" : "notprovided",
"bookkeeping" : {
"isdeleted" : false,
"isreadonly" : false,
"updates" : [
{
"event" : "addConfiguration",
"timestamp" : "2024-11-09T09:23:56.545-0600",
"value" : {
"name" : "notprovided",
"assigned" : "2024-11-09T09:23:56.545-0600"
}
},
{
"event" : "setVersion",
"timestamp" : "2024-11-09T09:23:56.545-0600",
"value" : {
"name" : "0",
"assigned" : "2024-11-09T09:23:56.545-0600"
}
},
{
"event" : "setCollection",
"timestamp" : "2024-11-09T09:23:56.545-0600",
"value" : {
"name" : "DataManagerSupervisorTable",
"assigned" : "2024-11-09T09:23:56.545-0600"
}
},
{
"event" : "addEntity",
"timestamp" : "2024-11-09T09:23:56.545-0600",
"value" : {
"name" : "OTSROOT",
"assigned" : "2024-11-09T09:23:56.545-0600"
}
},
{
"event" : "addConfiguration",
"timestamp" : "2024-11-09T09:23:56.908-0600",
"value" : {
"name" : "BurninBoxConfiguration_v0",
"assigned" : "2024-11-09T09:23:56.908-0600"
}
},
{
"event" : "addConfiguration",
"timestamp" : "2024-11-09T09:23:57.369-0600",
"value" : {
"name" : "BurninBoxConfiguration_v1",
"assigned" : "2024-11-09T09:23:57.369-0600"
}
}
],
"created" : "2024-11-09T09:23:56.545-0600"
},
"_id" : {
"$oid" : "a3081d9403fb4e8998008e74"
},
"collection" : "DataManagerSupervisorTable",
"aliases" : {
"active" : [

],
"history" : [

]
},
"runs" : [

],
"attachments" : [

],
"configtype" : "notprovided"
}