{
"ouid" : [
"276ea9e5fe1d4a6ba98b6c2a",
"6c2d493149bc480d86b18641"
],
"version" : {
"2" : [
"276ea9e5fe1d4a6ba98b6c2a"
],
"3" : [
"6c2d493149bc480d86b18641"
]
},
"configurations.name" : {
"notprovided" : [
"276ea9e5fe1d4a6ba98b6c2a",
"6c2d493149bc480d86b18641"
],
"DefaultContext_v2" : [
"276ea9e5fe1d4a6ba98b6c2a"
],
"DefaultContext_v3" : [
"6c2d493149bc480d86b18641"
]
},
"entities.name" : {
"OTSROOT" : [
"276ea9e5fe1d4a6ba98b6c2a",
"6c2d493149bc480d86b18641"
]
},
"aliases.active.name" : {

},
"runs.name" : {

},
"configurations.assigned" : {
"notprovided" : [
"2024-08-22T17:05:41.276-0500",
"2024-08-22T17:05:41.644-0500"
],
"DefaultContext_v2" : [
"2024-08-22T17:05:41.474-0500"
],
"DefaultContext_v3" : [
"2024-08-22T17:05:41.705-0500"
]
}
}