{
"ouid" : [
"7e02b5abb4db411aa7c60f83"
],
"version" : {
"0" : [
"7e02b5abb4db411aa7c60f83"
]
},
"configurations.name" : {
"notprovided" : [
"7e02b5abb4db411aa7c60f83"
],
"BurninBoxConfiguration_v0" : [
"7e02b5abb4db411aa7c60f83"
],
"BurninBoxConfiguration_v1" : [
"7e02b5abb4db411aa7c60f83"
],
"BurninBoxConfiguration_v2" : [
"7e02b5abb4db411aa7c60f83"
],
"BurninBoxConfiguration_v3" : [
"7e02b5abb4db411aa7c60f83"
],
"BurninBoxConfiguration_v4" : [
"7e02b5abb4db411aa7c60f83"
],
"BurninBoxConfiguration_v5" : [
"7e02b5abb4db411aa7c60f83"
],
"BurninBoxConfiguration_v6" : [
"7e02b5abb4db411aa7c60f83"
]
},
"entities.name" : {
"OTSROOT" : [
"7e02b5abb4db411aa7c60f83"
]
},
"aliases.active.name" : {

},
"runs.name" : {

},
"configurations.assigned" : {
"notprovided" : [
"2024-08-22T17:05:40.336-0500"
],
"BurninBoxConfiguration_v0" : [
"2024-08-22T17:05:40.676-0500"
],
"BurninBoxConfiguration_v1" : [
"2024-08-22T17:05:41.149-0500"
],
"BurninBoxConfiguration_v2" : [
"2024-08-22T17:15:54.892-0500"
],
"BurninBoxConfiguration_v3" : [
"2024-10-10T15:24:10.862-0500"
],
"BurninBoxConfiguration_v4" : [
"2024-10-10T15:27:42.097-0500"
],
"BurninBoxConfiguration_v5" : [
"2024-10-10T15:44:13.573-0500"
],
"BurninBoxConfiguration_v6" : [
"2024-10-10T15:51:49.988-0500"
]
}
}