{
"ouid" : [
"a04a217daf0d4c57ad318c01"
],
"version" : {
"0" : [
"a04a217daf0d4c57ad318c01"
]
},
"configurations.name" : {
"notprovided" : [
"a04a217daf0d4c57ad318c01"
],
"BurninBoxConfiguration_v0" : [
"a04a217daf0d4c57ad318c01"
]
},
"entities.name" : {
"OTSROOT" : [
"a04a217daf0d4c57ad318c01"
]
},
"aliases.active.name" : {

},
"runs.name" : {

},
"configurations.assigned" : {
"notprovided" : [
"2024-11-09T09:23:56.422-0600"
],
"BurninBoxConfiguration_v0" : [
"2024-11-09T09:23:56.813-0600"
]
}
}