{
"document" : {
"data" : {
"NAME" : "POWER_SUPPLY_DEVICE_TABLE",
"COMMENT" : "No comment.",
"AUTHOR" : "admin",
"CREATION_TIME" : 1603990464,
"COL_TYPES" : {
"POWER_SUPPLY_GROUP_ID" : "STRING",
"POWER_SUPPLY_DEVICE_UID" : "STRING",
"STATUS" : "STRING",
"LINK_TO_POWER_SUPPLY_TABLE" : "STRING",
"LINK_TO_POWER_SUPPLY_UID" : "STRING",
"COMMENT_DESCRIPTION" : "STRING",
"AUTHOR" : "STRING",
"RECORD_INSERTION_TIME" : "TIMESTAMP WITH TIMEZONE"
},
"DATA_SET" : [
{
"POWER_SUPPLY_GROUP_ID" : "BurninBox",
"POWER_SUPPLY_DEVICE_UID" : "CAENBurninBox",
"STATUS" : "On",
"LINK_TO_POWER_SUPPLY_TABLE" : "CAENPowerSupplyTable",
"LINK_TO_POWER_SUPPLY_UID" : "BurninBox",
"COMMENT_DESCRIPTION" : "No Comment",
"AUTHOR" : "admin",
"RECORD_INSERTION_TIME" : "1603990430"
}
]
},
"metadata" : {

},
"search" : [

]
},
"comments" : [

],
"origin" : {
"source" : "template",
"name" : "notprovided",
"format" : "json",
"created" : "2024-08-22T17:05:40.353-0500",
"rawdata" : [

]
},
"version" : "0",
"entities" : [
{
"name" : "OTSROOT",
"assigned" : "2024-08-22T17:05:40.354-0500"
}
],
"configurations" : [
{
"name" : "notprovided",
"assigned" : "2024-08-22T17:05:40.354-0500"
},
{
"name" : "BurninBoxConfiguration_v0",
"assigned" : "2024-08-22T17:05:40.690-0500"
},
{
"name" : "BurninBoxConfiguration_v1",
"assigned" : "2024-08-22T17:05:41.163-0500"
},
{
"name" : "BurninBoxConfiguration_v2",
"assigned" : "2024-08-22T17:15:54.908-0500"
},
{
"name" : "BurninBoxConfiguration_v3",
"assigned" : "2024-10-10T15:24:10.877-0500"
},
{
"name" : "BurninBoxConfiguration_v4",
"assigned" : "2024-10-10T15:27:42.113-0500"
},
{
"name" : "BurninBoxConfiguration_v5",
"assigned" : "2024-10-10T15:44:13.589-0500"
},
{
"name" : "BurninBoxConfiguration_v6",
"assigned" : "2024-10-10T15:51:50.006-0500"
}
],
"changelog" : "notprovided",
"bookkeeping" : {
"isdeleted" : false,
"isreadonly" : false,
"updates" : [
{
"event" : "addConfiguration",
"timestamp" : "2024-08-22T17:05:40.354-0500",
"value" : {
"name" : "notprovided",
"assigned" : "2024-08-22T17:05:40.354-0500"
}
},
{
"event" : "setVersion",
"timestamp" : "2024-08-22T17:05:40.354-0500",
"value" : {
"name" : "0",
"assigned" : "2024-08-22T17:05:40.354-0500"
}
},
{
"event" : "setCollection",
"timestamp" : "2024-08-22T17:05:40.354-0500",
"value" : {
"name" : "PowerSupplyDeviceTable",
"assigned" : "2024-08-22T17:05:40.354-0500"
}
},
{
"event" : "addEntity",
"timestamp" : "2024-08-22T17:05:40.354-0500",
"value" : {
"name" : "OTSROOT",
"assigned" : "2024-08-22T17:05:40.354-0500"
}
},
{
"event" : "addConfiguration",
"timestamp" : "2024-08-22T17:05:40.690-0500",
"value" : {
"name" : "BurninBoxConfiguration_v0",
"assigned" : "2024-08-22T17:05:40.690-0500"
}
},
{
"event" : "addConfiguration",
"timestamp" : "2024-08-22T17:05:41.163-0500",
"value" : {
"name" : "BurninBoxConfiguration_v1",
"assigned" : "2024-08-22T17:05:41.163-0500"
}
},
{
"event" : "addConfiguration",
"timestamp" : "2024-08-22T17:15:54.908-0500",
"value" : {
"name" : "BurninBoxConfiguration_v2",
"assigned" : "2024-08-22T17:15:54.908-0500"
}
},
{
"event" : "addConfiguration",
"timestamp" : "2024-10-10T15:24:10.877-0500",
"value" : {
"name" : "BurninBoxConfiguration_v3",
"assigned" : "2024-10-10T15:24:10.877-0500"
}
},
{
"event" : "addConfiguration",
"timestamp" : "2024-10-10T15:27:42.113-0500",
"value" : {
"name" : "BurninBoxConfiguration_v4",
"assigned" : "2024-10-10T15:27:42.113-0500"
}
},
{
"event" : "addConfiguration",
"timestamp" : "2024-10-10T15:44:13.589-0500",
"value" : {
"name" : "BurninBoxConfiguration_v5",
"assigned" : "2024-10-10T15:44:13.589-0500"
}
},
{
"event" : "addConfiguration",
"timestamp" : "2024-10-10T15:51:50.006-0500",
"value" : {
"name" : "BurninBoxConfiguration_v6",
"assigned" : "2024-10-10T15:51:50.006-0500"
}
}
],
"created" : "2024-08-22T17:05:40.353-0500"
},
"_id" : {
"$oid" : "6af14364b4134f40b3b463fe"
},
"collection" : "PowerSupplyDeviceTable",
"aliases" : {
"active" : [

],
"history" : [

]
},
"runs" : [

],
"attachments" : [

],
"configtype" : "notprovided"
}