{
"document" : {
"data" : {
"NAME" : "TABLE_GROUP_METADATA",
"COMMENT" : "",
"AUTHOR" : "",
"CREATION_TIME" : 1528236848,
"COL_TYPES" : {
"UNUSED_UID" : "NUMBER",
"GROUP_ALIASES" : "STRING",
"COMMENT_DESCRIPTION" : "STRING",
"AUTHOR" : "STRING",
"GROUP_CREATION_TIME" : "TIMESTAMP WITH TIMEZONE"
},
"DATA_SET" : [
{
"UNUSED_UID" : "0",
"GROUP_ALIASES" : "",
"COMMENT_DESCRIPTION" : "No%20comment.",
"AUTHOR" : "admin",
"GROUP_CREATION_TIME" : "1734367557"
}
]
},
"metadata" : {

},
"search" : [

]
},
"comments" : [

],
"origin" : {
"source" : "template",
"name" : "notprovided",
"format" : "json",
"created" : "2024-12-16T10:45:57.098-0600",
"rawdata" : [

]
},
"version" : "14",
"entities" : [
{
"name" : "OTSROOT",
"assigned" : "2024-12-16T10:45:57.098-0600"
}
],
"configurations" : [
{
"name" : "notprovided",
"assigned" : "2024-12-16T10:45:57.098-0600"
},
{
"name" : "iterateDefaultGroup_v7",
"assigned" : "2024-12-16T10:45:57.837-0600"
}
],
"changelog" : "notprovided",
"bookkeeping" : {
"isdeleted" : false,
"isreadonly" : false,
"updates" : [
{
"event" : "addConfiguration",
"timestamp" : "2024-12-16T10:45:57.098-0600",
"value" : {
"name" : "notprovided",
"assigned" : "2024-12-16T10:45:57.098-0600"
}
},
{
"event" : "setVersion",
"timestamp" : "2024-12-16T10:45:57.098-0600",
"value" : {
"name" : "14",
"assigned" : "2024-12-16T10:45:57.098-0600"
}
},
{
"event" : "setCollection",
"timestamp" : "2024-12-16T10:45:57.098-0600",
"value" : {
"name" : "TableGroupMetadata",
"assigned" : "2024-12-16T10:45:57.098-0600"
}
},
{
"event" : "addEntity",
"timestamp" : "2024-12-16T10:45:57.098-0600",
"value" : {
"name" : "OTSROOT",
"assigned" : "2024-12-16T10:45:57.098-0600"
}
},
{
"event" : "addConfiguration",
"timestamp" : "2024-12-16T10:45:57.838-0600",
"value" : {
"name" : "iterateDefaultGroup_v7",
"assigned" : "2024-12-16T10:45:57.837-0600"
}
}
],
"created" : "2024-12-16T10:45:57.098-0600"
},
"_id" : {
"$oid" : "f8b9d71a5e2846ab9b8fc305"
},
"collection" : "TableGroupMetadata",
"aliases" : {
"active" : [

],
"history" : [

]
},
"runs" : [

],
"attachments" : [

],
"configtype" : "notprovided"
}