{
"document" : {
"data" : {
"NAME" : "GROUP_ALIASES_TABLE",
"COMMENT" : "Default Backbone.",
"AUTHOR" : "admin",
"CREATION_TIME" : 1728591453,
"COL_TYPES" : {
"GROUP_KEY_ALIAS" : "STRING",
"GROUP_NAME" : "STRING",
"GROUP_KEY" : "STRING",
"COMMENT_DESCRIPTION" : "STRING",
"AUTHOR" : "STRING",
"RECORD_INSERTION_TIME" : "TIMESTAMP WITH TIMEZONE"
},
"DATA_SET" : [
{
"GROUP_KEY_ALIAS" : "DefaultContext",
"GROUP_NAME" : "DefaultContext",
"GROUP_KEY" : "3",
"COMMENT_DESCRIPTION" : "This Group Alias was automatically setup by the server.",
"AUTHOR" : "admin",
"RECORD_INSERTION_TIME" : "1720544484"
},
{
"GROUP_KEY_ALIAS" : "BurninBoxConfiguration",
"GROUP_NAME" : "BurninBoxConfiguration",
"GROUP_KEY" : "2",
"COMMENT_DESCRIPTION" : "This Group Alias was automatically setup by the server.",
"AUTHOR" : "admin",
"RECORD_INSERTION_TIME" : "1724364955"
},
{
"GROUP_KEY_ALIAS" : "BurninBoxOnlyContext",
"GROUP_NAME" : "DefaultContext",
"GROUP_KEY" : "2",
"COMMENT_DESCRIPTION" : "This Group Alias was automatically setup by the server.",
"AUTHOR" : "admin",
"RECORD_INSERTION_TIME" : "1632518780"
},
{
"GROUP_KEY_ALIAS" : "BurninBoxOnlyConfiguration",
"GROUP_NAME" : "BurninBoxConfiguration",
"GROUP_KEY" : "0",
"COMMENT_DESCRIPTION" : "This Group Alias was automatically setup by the server.",
"AUTHOR" : "admin",
"RECORD_INSERTION_TIME" : "1712698658"
},
{
"GROUP_KEY_ALIAS" : "DefaultIterator",
"GROUP_NAME" : "iterateDefaultGroup",
"GROUP_KEY" : "6",
"COMMENT_DESCRIPTION" : "This Group Alias was automatically setup by the server.",
"AUTHOR" : "admin",
"RECORD_INSERTION_TIME" : "1728591453"
}
]
},
"metadata" : {

},
"search" : [

]
},
"comments" : [

],
"origin" : {
"source" : "template",
"name" : "notprovided",
"format" : "json",
"created" : "2024-10-10T15:17:33.496-0500",
"rawdata" : [

]
},
"version" : "8",
"entities" : [
{
"name" : "OTSROOT",
"assigned" : "2024-10-10T15:17:33.496-0500"
}
],
"configurations" : [
{
"name" : "notprovided",
"assigned" : "2024-10-10T15:17:33.496-0500"
},
{
"name" : "GroupAliasTreeEditWizBackbone_v8",
"assigned" : "2024-10-10T15:17:33.671-0500"
}
],
"changelog" : "notprovided",
"bookkeeping" : {
"isdeleted" : false,
"isreadonly" : false,
"updates" : [
{
"event" : "addConfiguration",
"timestamp" : "2024-10-10T15:17:33.496-0500",
"value" : {
"name" : "notprovided",
"assigned" : "2024-10-10T15:17:33.496-0500"
}
},
{
"event" : "setVersion",
"timestamp" : "2024-10-10T15:17:33.496-0500",
"value" : {
"name" : "8",
"assigned" : "2024-10-10T15:17:33.496-0500"
}
},
{
"event" : "setCollection",
"timestamp" : "2024-10-10T15:17:33.496-0500",
"value" : {
"name" : "GroupAliasesTable",
"assigned" : "2024-10-10T15:17:33.496-0500"
}
},
{
"event" : "addEntity",
"timestamp" : "2024-10-10T15:17:33.496-0500",
"value" : {
"name" : "OTSROOT",
"assigned" : "2024-10-10T15:17:33.496-0500"
}
},
{
"event" : "addConfiguration",
"timestamp" : "2024-10-10T15:17:33.671-0500",
"value" : {
"name" : "GroupAliasTreeEditWizBackbone_v8",
"assigned" : "2024-10-10T15:17:33.671-0500"
}
}
],
"created" : "2024-10-10T15:17:33.496-0500"
},
"_id" : {
"$oid" : "21e56187519248cbae8f00d2"
},
"collection" : "GroupAliasesTable",
"aliases" : {
"active" : [

],
"history" : [

]
},
"runs" : [

],
"attachments" : [

],
"configtype" : "notprovided"
}