{
"document" : {
"data" : {
"NAME" : "FE_POWER_SUPPLY_INTERFACE_TABLE",
"COMMENT" : "No comment.",
"AUTHOR" : "admin",
"CREATION_TIME" : 1603997280,
"COL_TYPES" : {
"INTERFACE_ID" : "STRING",
"STATUS" : "STRING",
"DATA_PUBLISHER_PORT" : "NUMBER",
"LINK_TO_POWER_SUPPLY_DEVICE_TABLE" : "STRING",
"LINK_TO_POWER_SUPPLY_DEVICE_UID" : "STRING",
"LINK_TO_POWER_SUPPLY_TO_DETECTOR_TABLE" : "STRING",
"LINK_TO_POWER_SUPPLY_TO_DETECTOR_UID" : "STRING",
"COMMENT_DESCRIPTION" : "STRING",
"AUTHOR" : "STRING",
"RECORD_INSERTION_TIME" : "TIMESTAMP WITH TIMEZONE"
},
"DATA_SET" : [
{
"INTERFACE_ID" : "FEPowerSupplyInterface",
"STATUS" : "On",
"DATA_PUBLISHER_PORT" : "50001",
"LINK_TO_POWER_SUPPLY_DEVICE_TABLE" : "PowerSupplyDeviceTable",
"LINK_TO_POWER_SUPPLY_DEVICE_UID" : "BurninBox",
"LINK_TO_POWER_SUPPLY_TO_DETECTOR_TABLE" : "PowerSupplyToDetectorTable",
"LINK_TO_POWER_SUPPLY_TO_DETECTOR_UID" : "BurninBox",
"COMMENT_DESCRIPTION" : "No Comment",
"AUTHOR" : "admin",
"RECORD_INSERTION_TIME" : "1603997280"
}
]
},
"metadata" : {

},
"search" : [

]
},
"comments" : [

],
"origin" : {
"source" : "template",
"name" : "notprovided",
"format" : "json",
"created" : "2024-11-09T09:23:56.634-0600",
"rawdata" : [

]
},
"version" : "0",
"entities" : [
{
"name" : "OTSROOT",
"assigned" : "2024-11-09T09:23:56.634-0600"
}
],
"configurations" : [
{
"name" : "notprovided",
"assigned" : "2024-11-09T09:23:56.634-0600"
},
{
"name" : "BurninBoxConfiguration_v0",
"assigned" : "2024-11-09T09:23:56.978-0600"
},
{
"name" : "BurninBoxConfiguration_v1",
"assigned" : "2024-11-09T09:23:57.440-0600"
}
],
"changelog" : "notprovided",
"bookkeeping" : {
"isdeleted" : false,
"isreadonly" : false,
"updates" : [
{
"event" : "addConfiguration",
"timestamp" : "2024-11-09T09:23:56.634-0600",
"value" : {
"name" : "notprovided",
"assigned" : "2024-11-09T09:23:56.634-0600"
}
},
{
"event" : "setVersion",
"timestamp" : "2024-11-09T09:23:56.634-0600",
"value" : {
"name" : "0",
"assigned" : "2024-11-09T09:23:56.634-0600"
}
},
{
"event" : "setCollection",
"timestamp" : "2024-11-09T09:23:56.634-0600",
"value" : {
"name" : "FEPowerSupplyInterfaceTable",
"assigned" : "2024-11-09T09:23:56.634-0600"
}
},
{
"event" : "addEntity",
"timestamp" : "2024-11-09T09:23:56.634-0600",
"value" : {
"name" : "OTSROOT",
"assigned" : "2024-11-09T09:23:56.634-0600"
}
},
{
"event" : "addConfiguration",
"timestamp" : "2024-11-09T09:23:56.978-0600",
"value" : {
"name" : "BurninBoxConfiguration_v0",
"assigned" : "2024-11-09T09:23:56.978-0600"
}
},
{
"event" : "addConfiguration",
"timestamp" : "2024-11-09T09:23:57.440-0600",
"value" : {
"name" : "BurninBoxConfiguration_v1",
"assigned" : "2024-11-09T09:23:57.440-0600"
}
}
],
"created" : "2024-11-09T09:23:56.634-0600"
},
"_id" : {
"$oid" : "adacb8fab9884dd69c0b6cff"
},
"collection" : "FEPowerSupplyInterfaceTable",
"aliases" : {
"active" : [

],
"history" : [

]
},
"runs" : [

],
"attachments" : [

],
"configtype" : "notprovided"
}