{
"ouid" : [
"48fb21f96f1f4926a98f2593",
"72166401d62549bcba6b2160",
"9e0d0473aa6045f69e001695"
],
"version" : {
"0" : [
"72166401d62549bcba6b2160"
],
"1" : [
"48fb21f96f1f4926a98f2593"
],
"2" : [
"9e0d0473aa6045f69e001695"
]
},
"configurations.name" : {
"notprovided" : [
"48fb21f96f1f4926a98f2593",
"72166401d62549bcba6b2160",
"9e0d0473aa6045f69e001695"
],
"BurninBoxConfiguration_v0" : [
"72166401d62549bcba6b2160"
],
"BurninBoxConfiguration_v1" : [
"48fb21f96f1f4926a98f2593"
],
"BurninBoxConfiguration_v2" : [
"9e0d0473aa6045f69e001695"
],
"BurninBoxConfiguration_v3" : [
"9e0d0473aa6045f69e001695"
],
"BurninBoxConfiguration_v4" : [
"9e0d0473aa6045f69e001695"
],
"BurninBoxConfiguration_v5" : [
"9e0d0473aa6045f69e001695"
],
"BurninBoxConfiguration_v6" : [
"9e0d0473aa6045f69e001695"
],
"BurninBoxConfiguration_v7" : [
"9e0d0473aa6045f69e001695"
],
"BurninBoxConfiguration_v8" : [
"9e0d0473aa6045f69e001695"
],
"BurninBoxConfiguration_v9" : [
"9e0d0473aa6045f69e001695"
],
"BurninBoxConfiguration_v10" : [
"9e0d0473aa6045f69e001695"
]
},
"entities.name" : {
"OTSROOT" : [
"48fb21f96f1f4926a98f2593",
"72166401d62549bcba6b2160",
"9e0d0473aa6045f69e001695"
]
},
"aliases.active.name" : {

},
"runs.name" : {

},
"configurations.assigned" : {
"notprovided" : [
"2024-11-09T09:23:56.686-0600",
"2024-11-09T09:23:57.235-0600",
"2024-12-02T15:21:28.403-0600"
],
"BurninBoxConfiguration_v0" : [
"2024-11-09T09:23:57.021-0600"
],
"BurninBoxConfiguration_v1" : [
"2024-11-09T09:23:57.482-0600"
],
"BurninBoxConfiguration_v2" : [
"2024-12-02T15:21:28.853-0600"
],
"BurninBoxConfiguration_v3" : [
"2024-12-02T15:58:40.047-0600"
],
"BurninBoxConfiguration_v4" : [
"2024-12-03T13:28:14.211-0600"
],
"BurninBoxConfiguration_v5" : [
"2024-12-16T10:47:06.976-0600"
],
"BurninBoxConfiguration_v6" : [
"2024-12-17T07:24:02.608-0600"
],
"BurninBoxConfiguration_v7" : [
"2024-12-18T10:28:56.533-0600"
],
"BurninBoxConfiguration_v8" : [
"2024-12-18T10:53:16.190-0600"
],
"BurninBoxConfiguration_v9" : [
"2024-12-18T12:23:21.915-0600"
],
"BurninBoxConfiguration_v10" : [
"2024-12-19T21:55:18.051-0600"
]
}
}