{
"ouid" : [
"a6e45fda4edc460c8741db22"
],
"version" : {
"5" : [
"a6e45fda4edc460c8741db22"
]
},
"configurations.name" : {
"notprovided" : [
"a6e45fda4edc460c8741db22"
]
},
"entities.name" : {
"OTSROOT" : [
"a6e45fda4edc460c8741db22"
]
},
"aliases.active.name" : {

},
"runs.name" : {

},
"configurations.assigned" : {
"notprovided" : [
"2024-11-09T09:23:58.745-0600"
]
}
}