{
"document" : {
"data" : {
"GroupAliasesTable" : "12",
"TableGroupMetadata" : "17",
"VersionAliasesTable" : "6"
},
"metadata" : {

},
"search" : [

]
},
"comments" : [

],
"origin" : {
"source" : "template",
"name" : "notprovided",
"format" : "json",
"created" : "2024-12-16T10:47:07.838-0600",
"rawdata" : [

]
},
"version" : "12",
"entities" : [
{
"name" : "OTSROOT",
"assigned" : "2024-12-16T10:47:07.839-0600"
}
],
"configurations" : [
{
"name" : "notprovided",
"assigned" : "2024-12-16T10:47:07.838-0600"
}
],
"changelog" : "notprovided",
"bookkeeping" : {
"isdeleted" : false,
"isreadonly" : false,
"updates" : [
{
"event" : "addConfiguration",
"timestamp" : "2024-12-16T10:47:07.838-0600",
"value" : {
"name" : "notprovided",
"assigned" : "2024-12-16T10:47:07.838-0600"
}
},
{
"event" : "setVersion",
"timestamp" : "2024-12-16T10:47:07.838-0600",
"value" : {
"name" : "12",
"assigned" : "2024-12-16T10:47:07.838-0600"
}
},
{
"event" : "setCollection",
"timestamp" : "2024-12-16T10:47:07.839-0600",
"value" : {
"name" : "GroupCache_GroupAliasTreeEditWizBackbone",
"assigned" : "2024-12-16T10:47:07.839-0600"
}
},
{
"event" : "addEntity",
"timestamp" : "2024-12-16T10:47:07.839-0600",
"value" : {
"name" : "OTSROOT",
"assigned" : "2024-12-16T10:47:07.839-0600"
}
}
],
"created" : "2024-12-16T10:47:07.838-0600"
},
"_id" : {
"$oid" : "c6ac2d4958cb488dacccd88a"
},
"collection" : "GroupCache_GroupAliasTreeEditWizBackbone",
"aliases" : {
"active" : [

],
"history" : [

]
},
"runs" : [

],
"attachments" : [

],
"configtype" : "notprovided"
}