{
"ouid" : [
"bffc4e4bd7124dcb890ab647"
],
"version" : {
"2" : [
"bffc4e4bd7124dcb890ab647"
]
},
"configurations.name" : {
"notprovided" : [
"bffc4e4bd7124dcb890ab647"
],
"DefaultContext_v2" : [
"bffc4e4bd7124dcb890ab647"
],
"DefaultContext_v3" : [
"bffc4e4bd7124dcb890ab647"
]
},
"entities.name" : {
"OTSROOT" : [
"bffc4e4bd7124dcb890ab647"
]
},
"aliases.active.name" : {

},
"runs.name" : {

},
"configurations.assigned" : {
"notprovided" : [
"2024-08-22T17:05:41.394-0500"
],
"DefaultContext_v2" : [
"2024-08-22T17:05:41.575-0500"
],
"DefaultContext_v3" : [
"2024-08-22T17:05:41.804-0500"
]
}
}