{
"ouid" : [
"0ff6539194b24267b3b49b70",
"14c4c476878b444386d4b9be",
"161b3137c0be4ded95101731",
"2470e6a2d6c3481199f409a0",
"3f217bb31f004533b732d14d",
"4aa858204fdd47bc8ba06e99",
"4f1d5b54fff6479bbb87ea78",
"673557ec92ba4b96bfd83167",
"6a98718062b34df9a09bdebc",
"70cbb6e36cef46b182c9d19d",
"79d62140ddd546dfbe757be2",
"9675d1748d9f4274be5d6aba",
"d27129eebace4ae182d5323f",
"d7de147f8de54108995dad00",
"d7f353570dd141eebc374bc4",
"daf5a1fc1acc4c3382ffbd64",
"ddbf05c9da60431182197cc5",
"e68d6c30b6f6406eb7947729"
],
"version" : {
"0" : [
"6a98718062b34df9a09bdebc"
],
"1" : [
"d27129eebace4ae182d5323f"
],
"2" : [
"daf5a1fc1acc4c3382ffbd64"
],
"3" : [
"0ff6539194b24267b3b49b70"
],
"4" : [
"14c4c476878b444386d4b9be"
],
"5" : [
"2470e6a2d6c3481199f409a0"
],
"6" : [
"3f217bb31f004533b732d14d"
],
"7" : [
"9675d1748d9f4274be5d6aba"
],
"8" : [
"e68d6c30b6f6406eb7947729"
],
"9" : [
"4f1d5b54fff6479bbb87ea78"
],
"10" : [
"ddbf05c9da60431182197cc5"
],
"11" : [
"161b3137c0be4ded95101731"
],
"12" : [
"70cbb6e36cef46b182c9d19d"
],
"13" : [
"d7de147f8de54108995dad00"
],
"14" : [
"79d62140ddd546dfbe757be2"
],
"15" : [
"4aa858204fdd47bc8ba06e99"
],
"16" : [
"d7f353570dd141eebc374bc4"
],
"17" : [
"673557ec92ba4b96bfd83167"
]
},
"configurations.name" : {
"notprovided" : [
"0ff6539194b24267b3b49b70",
"14c4c476878b444386d4b9be",
"161b3137c0be4ded95101731",
"2470e6a2d6c3481199f409a0",
"3f217bb31f004533b732d14d",
"4aa858204fdd47bc8ba06e99",
"4f1d5b54fff6479bbb87ea78",
"673557ec92ba4b96bfd83167",
"6a98718062b34df9a09bdebc",
"70cbb6e36cef46b182c9d19d",
"79d62140ddd546dfbe757be2",
"9675d1748d9f4274be5d6aba",
"d27129eebace4ae182d5323f",
"d7de147f8de54108995dad00",
"d7f353570dd141eebc374bc4",
"daf5a1fc1acc4c3382ffbd64",
"ddbf05c9da60431182197cc5",
"e68d6c30b6f6406eb7947729"
],
"BurninBoxConfiguration_v0" : [
"6a98718062b34df9a09bdebc"
],
"BurninBoxConfiguration_v1" : [
"d27129eebace4ae182d5323f"
],
"DefaultContext_v2" : [
"daf5a1fc1acc4c3382ffbd64"
],
"DefaultContext_v3" : [
"0ff6539194b24267b3b49b70"
],
"GroupAliasTreeEditWizBackbone_v4" : [
"14c4c476878b444386d4b9be"
],
"iterateDefaultGroup_v5" : [
"2470e6a2d6c3481199f409a0"
],
"BurninBoxConfiguration_v2" : [
"3f217bb31f004533b732d14d"
],
"GroupAliasTreeEditWizBackbone_v7" : [
"9675d1748d9f4274be5d6aba"
],
"iterateDefaultGroup_v6" : [
"e68d6c30b6f6406eb7947729"
],
"GroupAliasTreeEditWizBackbone_v8" : [
"4f1d5b54fff6479bbb87ea78"
],
"BurninBoxConfiguration_v3" : [
"ddbf05c9da60431182197cc5"
],
"GroupAliasTreeEditWizBackbone_v9" : [
"161b3137c0be4ded95101731"
],
"BurninBoxConfiguration_v4" : [
"70cbb6e36cef46b182c9d19d"
],
"GroupAliasTreeEditWizBackbone_v10" : [
"d7de147f8de54108995dad00"
],
"BurninBoxConfiguration_v5" : [
"79d62140ddd546dfbe757be2"
],
"GroupAliasTreeEditWizBackbone_v11" : [
"4aa858204fdd47bc8ba06e99"
],
"BurninBoxConfiguration_v6" : [
"d7f353570dd141eebc374bc4"
],
"GroupAliasTreeEditWizBackbone_v12" : [
"673557ec92ba4b96bfd83167"
]
},
"entities.name" : {
"OTSROOT" : [
"0ff6539194b24267b3b49b70",
"14c4c476878b444386d4b9be",
"161b3137c0be4ded95101731",
"2470e6a2d6c3481199f409a0",
"3f217bb31f004533b732d14d",
"4aa858204fdd47bc8ba06e99",
"4f1d5b54fff6479bbb87ea78",
"673557ec92ba4b96bfd83167",
"6a98718062b34df9a09bdebc",
"70cbb6e36cef46b182c9d19d",
"79d62140ddd546dfbe757be2",
"9675d1748d9f4274be5d6aba",
"d27129eebace4ae182d5323f",
"d7de147f8de54108995dad00",
"d7f353570dd141eebc374bc4",
"daf5a1fc1acc4c3382ffbd64",
"ddbf05c9da60431182197cc5",
"e68d6c30b6f6406eb7947729"
]
},
"aliases.active.name" : {

},
"runs.name" : {

},
"configurations.assigned" : {
"notprovided" : [
"2024-08-22T17:05:40.443-0500",
"2024-08-22T17:05:40.925-0500",
"2024-08-22T17:05:41.462-0500",
"2024-08-22T17:05:41.693-0500",
"2024-08-22T17:05:41.899-0500",
"2024-08-22T17:05:42.242-0500",
"2024-08-22T17:15:54.651-0500",
"2024-08-22T17:15:55.284-0500",
"2024-10-10T15:17:33.177-0500",
"2024-10-10T15:17:33.658-0500",
"2024-10-10T15:24:10.613-0500",
"2024-10-10T15:24:11.304-0500",
"2024-10-10T15:27:41.840-0500",
"2024-10-10T15:27:42.548-0500",
"2024-10-10T15:44:13.319-0500",
"2024-10-10T15:44:14.011-0500",
"2024-10-10T15:51:49.723-0500",
"2024-10-10T15:51:50.450-0500"
],
"BurninBoxConfiguration_v0" : [
"2024-08-22T17:05:40.750-0500"
],
"BurninBoxConfiguration_v1" : [
"2024-08-22T17:05:41.221-0500"
],
"DefaultContext_v2" : [
"2024-08-22T17:05:41.561-0500"
],
"DefaultContext_v3" : [
"2024-08-22T17:05:41.790-0500"
],
"GroupAliasTreeEditWizBackbone_v4" : [
"2024-08-22T17:05:41.925-0500"
],
"iterateDefaultGroup_v5" : [
"2024-08-22T17:05:42.469-0500"
],
"BurninBoxConfiguration_v2" : [
"2024-08-22T17:15:54.972-0500"
],
"GroupAliasTreeEditWizBackbone_v7" : [
"2024-08-22T17:15:55.312-0500"
],
"iterateDefaultGroup_v6" : [
"2024-10-10T15:17:33.412-0500"
],
"GroupAliasTreeEditWizBackbone_v8" : [
"2024-10-10T15:17:33.686-0500"
],
"BurninBoxConfiguration_v3" : [
"2024-10-10T15:24:10.942-0500"
],
"GroupAliasTreeEditWizBackbone_v9" : [
"2024-10-10T15:24:11.332-0500"
],
"BurninBoxConfiguration_v4" : [
"2024-10-10T15:27:42.181-0500"
],
"GroupAliasTreeEditWizBackbone_v10" : [
"2024-10-10T15:27:42.575-0500"
],
"BurninBoxConfiguration_v5" : [
"2024-10-10T15:44:13.656-0500"
],
"GroupAliasTreeEditWizBackbone_v11" : [
"2024-10-10T15:44:14.040-0500"
],
"BurninBoxConfiguration_v6" : [
"2024-10-10T15:51:50.075-0500"
],
"GroupAliasTreeEditWizBackbone_v12" : [
"2024-10-10T15:51:50.479-0500"
]
}
}