{
"ouid" : [
"b52da7c73abf465092f4d570",
"f5bcc0ddf1c34e9789b547ac"
],
"version" : {
"0" : [
"f5bcc0ddf1c34e9789b547ac"
],
"1" : [
"b52da7c73abf465092f4d570"
]
},
"configurations.name" : {
"notprovided" : [
"b52da7c73abf465092f4d570",
"f5bcc0ddf1c34e9789b547ac"
],
"BurninBoxConfiguration_v0" : [
"f5bcc0ddf1c34e9789b547ac"
],
"BurninBoxConfiguration_v1" : [
"b52da7c73abf465092f4d570"
],
"BurninBoxConfiguration_v2" : [
"b52da7c73abf465092f4d570"
],
"BurninBoxConfiguration_v3" : [
"b52da7c73abf465092f4d570"
],
"BurninBoxConfiguration_v4" : [
"b52da7c73abf465092f4d570"
],
"BurninBoxConfiguration_v5" : [
"b52da7c73abf465092f4d570"
],
"BurninBoxConfiguration_v6" : [
"b52da7c73abf465092f4d570"
],
"BurninBoxConfiguration_v7" : [
"b52da7c73abf465092f4d570"
],
"BurninBoxConfiguration_v8" : [
"b52da7c73abf465092f4d570"
],
"BurninBoxConfiguration_v9" : [
"b52da7c73abf465092f4d570"
],
"BurninBoxConfiguration_v10" : [
"b52da7c73abf465092f4d570"
]
},
"entities.name" : {
"OTSROOT" : [
"b52da7c73abf465092f4d570",
"f5bcc0ddf1c34e9789b547ac"
]
},
"aliases.active.name" : {

},
"runs.name" : {

},
"configurations.assigned" : {
"notprovided" : [
"2024-11-09T09:23:56.527-0600",
"2024-11-09T09:23:57.198-0600"
],
"BurninBoxConfiguration_v0" : [
"2024-11-09T09:23:56.894-0600"
],
"BurninBoxConfiguration_v1" : [
"2024-11-09T09:23:57.356-0600"
],
"BurninBoxConfiguration_v2" : [
"2024-12-02T15:21:28.699-0600"
],
"BurninBoxConfiguration_v3" : [
"2024-12-02T15:58:39.896-0600"
],
"BurninBoxConfiguration_v4" : [
"2024-12-03T13:28:14.064-0600"
],
"BurninBoxConfiguration_v5" : [
"2024-12-16T10:47:06.562-0600"
],
"BurninBoxConfiguration_v6" : [
"2024-12-17T07:24:02.228-0600"
],
"BurninBoxConfiguration_v7" : [
"2024-12-18T10:28:56.057-0600"
],
"BurninBoxConfiguration_v8" : [
"2024-12-18T10:53:15.783-0600"
],
"BurninBoxConfiguration_v9" : [
"2024-12-18T12:23:21.444-0600"
],
"BurninBoxConfiguration_v10" : [
"2024-12-19T21:55:17.591-0600"
]
}
}