{
"document" : {
"data" : {
"NAME" : "VERSION_ALIASES_TABLE",
"COMMENT" : "Default Version Aliases.",
"AUTHOR" : "admin",
"CREATION_TIME" : 1681504467,
"COL_TYPES" : {
"VERSION_ALIAS_UID" : "STRING",
"TABLE_NAME" : "STRING",
"VERSION_ALIAS" : "STRING",
"VERSION" : "STRING",
"COMMENT_DESCRIPTION" : "STRING",
"AUTHOR" : "STRING",
"RECORD_INSERTION_TIME" : "TIMESTAMP WITH TIMEZONE"
},
"DATA_SET" : [

]
},
"metadata" : {

},
"search" : [

]
},
"comments" : [

],
"origin" : {
"source" : "template",
"name" : "notprovided",
"format" : "json",
"created" : "2024-11-09T09:23:58.777-0600",
"rawdata" : [

]
},
"version" : "6",
"entities" : [
{
"name" : "OTSROOT",
"assigned" : "2024-11-09T09:23:58.777-0600"
}
],
"configurations" : [
{
"name" : "notprovided",
"assigned" : "2024-11-09T09:23:58.777-0600"
},
{
"name" : "GroupAliasTreeEditWizBackbone_v6",
"assigned" : "2024-11-09T09:23:58.803-0600"
}
],
"changelog" : "notprovided",
"bookkeeping" : {
"isdeleted" : false,
"isreadonly" : false,
"updates" : [
{
"event" : "addConfiguration",
"timestamp" : "2024-11-09T09:23:58.777-0600",
"value" : {
"name" : "notprovided",
"assigned" : "2024-11-09T09:23:58.777-0600"
}
},
{
"event" : "setVersion",
"timestamp" : "2024-11-09T09:23:58.777-0600",
"value" : {
"name" : "6",
"assigned" : "2024-11-09T09:23:58.777-0600"
}
},
{
"event" : "setCollection",
"timestamp" : "2024-11-09T09:23:58.777-0600",
"value" : {
"name" : "VersionAliasesTable",
"assigned" : "2024-11-09T09:23:58.777-0600"
}
},
{
"event" : "addEntity",
"timestamp" : "2024-11-09T09:23:58.777-0600",
"value" : {
"name" : "OTSROOT",
"assigned" : "2024-11-09T09:23:58.777-0600"
}
},
{
"event" : "addConfiguration",
"timestamp" : "2024-11-09T09:23:58.803-0600",
"value" : {
"name" : "GroupAliasTreeEditWizBackbone_v6",
"assigned" : "2024-11-09T09:23:58.803-0600"
}
}
],
"created" : "2024-11-09T09:23:58.777-0600"
},
"_id" : {
"$oid" : "e0b97adac175492fb2a1c66a"
},
"collection" : "VersionAliasesTable",
"aliases" : {
"active" : [

],
"history" : [

]
},
"runs" : [

],
"attachments" : [

],
"configtype" : "notprovided"
}