{
"document" : {
"data" : {
"NAME" : "XDAQ_APPLICATION_TABLE",
"COMMENT" : "No comment.",
"AUTHOR" : "admin",
"CREATION_TIME" : 1676321892,
"COL_TYPES" : {
"APPLICATION_GROUP_ID" : "STRING",
"APPLICATION_UID" : "STRING",
"LINK_TO_SUPERVISOR_TABLE" : "STRING",
"LINK_TO_SUPERVISOR_UID" : "STRING",
"STATUS" : "STRING",
"CLASS" : "STRING",
"ID" : "NUMBER",
"INSTANCE" : "NUMBER",
"NETWORK" : "STRING",
"GROUP" : "STRING",
"MODULE" : "STRING",
"CONFIGURE_PRIORITY" : "NUMBER",
"START_PRIORITY" : "NUMBER",
"STOP_PRIORITY" : "NUMBER",
"LINK_TO_PROPERTY_TABLE" : "STRING",
"LINK_TO_PROPERTY_GROUP_ID" : "STRING",
"COMMENT_DESCRIPTION" : "STRING",
"AUTHOR" : "STRING",
"RECORD_INSERTION_TIME" : "TIMESTAMP WITH TIMEZONE"
},
"DATA_SET" : [
{
"APPLICATION_GROUP_ID" : "MainContextApps",
"APPLICATION_UID" : "GatewaySupervisor",
"LINK_TO_SUPERVISOR_TABLE" : "GatewaySupervisorTable",
"LINK_TO_SUPERVISOR_UID" : "GatewaySupervisor",
"STATUS" : "On",
"CLASS" : "ots::GatewaySupervisor",
"ID" : "200",
"INSTANCE" : "1",
"NETWORK" : "local",
"GROUP" : "daq",
"MODULE" : "${OTSDAQ_LIB}/libGatewaySupervisor.so",
"CONFIGURE_PRIORITY" : "0",
"START_PRIORITY" : "0",
"STOP_PRIORITY" : "0",
"LINK_TO_PROPERTY_TABLE" : "NO_LINK",
"LINK_TO_PROPERTY_GROUP_ID" : "DEFAULT",
"COMMENT_DESCRIPTION" : "DEFAULT",
"AUTHOR" : "admin",
"RECORD_INSERTION_TIME" : "1676321892"
},
{
"APPLICATION_GROUP_ID" : "MainContextApps",
"APPLICATION_UID" : "ChatSupervisor",
"LINK_TO_SUPERVISOR_TABLE" : "NO_LINK",
"LINK_TO_SUPERVISOR_UID" : "ChatSupervisor",
"STATUS" : "On",
"CLASS" : "ots::ChatSupervisor",
"ID" : "110",
"INSTANCE" : "1",
"NETWORK" : "local",
"GROUP" : "daq",
"MODULE" : "${OTSDAQ_UTILITIES_LIB}/libChat.so",
"CONFIGURE_PRIORITY" : "0",
"START_PRIORITY" : "0",
"STOP_PRIORITY" : "0",
"LINK_TO_PROPERTY_TABLE" : "NO_LINK",
"LINK_TO_PROPERTY_GROUP_ID" : "DEFAULT",
"COMMENT_DESCRIPTION" : "DEFAULT",
"AUTHOR" : "admin",
"RECORD_INSERTION_TIME" : "1601934164"
},
{
"APPLICATION_GROUP_ID" : "MainContextApps",
"APPLICATION_UID" : "ConsoleSupervisor",
"LINK_TO_SUPERVISOR_TABLE" : "NO_LINK",
"LINK_TO_SUPERVISOR_UID" : "ConsoleSupervisor",
"STATUS" : "On",
"CLASS" : "ots::ConsoleSupervisor",
"ID" : "111",
"INSTANCE" : "1",
"NETWORK" : "local",
"GROUP" : "daq",
"MODULE" : "${OTSDAQ_UTILITIES_LIB}/libConsole.so",
"CONFIGURE_PRIORITY" : "0",
"START_PRIORITY" : "0",
"STOP_PRIORITY" : "0",
"LINK_TO_PROPERTY_TABLE" : "NO_LINK",
"LINK_TO_PROPERTY_GROUP_ID" : "DEFAULT",
"COMMENT_DESCRIPTION" : "DEFAULT",
"AUTHOR" : "admin",
"RECORD_INSERTION_TIME" : "1601934164"
},
{
"APPLICATION_GROUP_ID" : "MainContextApps",
"APPLICATION_UID" : "LogbookSupervisor",
"LINK_TO_SUPERVISOR_TABLE" : "NO_LINK",
"LINK_TO_SUPERVISOR_UID" : "LogbookSupervisor",
"STATUS" : "Off",
"CLASS" : "ots::LogbookSupervisor",
"ID" : "112",
"INSTANCE" : "1",
"NETWORK" : "local",
"GROUP" : "daq",
"MODULE" : "${OTSDAQ_UTILITIES_LIB}/libLogbook.so",
"CONFIGURE_PRIORITY" : "0",
"START_PRIORITY" : "0",
"STOP_PRIORITY" : "0",
"LINK_TO_PROPERTY_TABLE" : "NO_LINK",
"LINK_TO_PROPERTY_GROUP_ID" : "DEFAULT",
"COMMENT_DESCRIPTION" : "DEFAULT",
"AUTHOR" : "admin",
"RECORD_INSERTION_TIME" : "1650300929"
},
{
"APPLICATION_GROUP_ID" : "MainContextApps",
"APPLICATION_UID" : "ConfigurationGUISupervisor",
"LINK_TO_SUPERVISOR_TABLE" : "NO_LINK",
"LINK_TO_SUPERVISOR_UID" : "ConfigurationGUISupervisor",
"STATUS" : "On",
"CLASS" : "ots::ConfigurationGUISupervisor",
"ID" : "113",
"INSTANCE" : "1",
"NETWORK" : "local",
"GROUP" : "daq",
"MODULE" : "${OTSDAQ_UTILITIES_LIB}/libConfigurationGUI.so",
"CONFIGURE_PRIORITY" : "0",
"START_PRIORITY" : "0",
"STOP_PRIORITY" : "0",
"LINK_TO_PROPERTY_TABLE" : "NO_LINK",
"LINK_TO_PROPERTY_GROUP_ID" : "DEFAULT",
"COMMENT_DESCRIPTION" : "DEFAULT",
"AUTHOR" : "admin",
"RECORD_INSERTION_TIME" : "1603996409"
},
{
"APPLICATION_GROUP_ID" : "MainContextApps",
"APPLICATION_UID" : "ControlsDashboardSupervisor",
"LINK_TO_SUPERVISOR_TABLE" : "NO_LINK",
"LINK_TO_SUPERVISOR_UID" : "ControlsDashboardSupervisor",
"STATUS" : "Off",
"CLASS" : "ots::ControlsDashboardSupervisor",
"ID" : "114",
"INSTANCE" : "1",
"NETWORK" : "local",
"GROUP" : "daq",
"MODULE" : "${OTSDAQ_UTILITIES_LIB}/libControlsDashboard.so",
"CONFIGURE_PRIORITY" : "0",
"START_PRIORITY" : "0",
"STOP_PRIORITY" : "0",
"LINK_TO_PROPERTY_TABLE" : "NO_LINK",
"LINK_TO_PROPERTY_GROUP_ID" : "DEFAULT",
"COMMENT_DESCRIPTION" : "Used for arbitrary controls guis",
"AUTHOR" : "admin",
"RECORD_INSERTION_TIME" : "1603996409"
},
{
"APPLICATION_GROUP_ID" : "MainContextApps",
"APPLICATION_UID" : "MacroMakerSupervisor",
"LINK_TO_SUPERVISOR_TABLE" : "NO_LINK",
"LINK_TO_SUPERVISOR_UID" : "MacroMakerSupervisor",
"STATUS" : "On",
"CLASS" : "ots::MacroMakerSupervisor",
"ID" : "115",
"INSTANCE" : "1",
"NETWORK" : "local",
"GROUP" : "daq",
"MODULE" : "${OTSDAQ_UTILITIES_LIB}/libMacroMaker.so",
"CONFIGURE_PRIORITY" : "0",
"START_PRIORITY" : "0",
"STOP_PRIORITY" : "0",
"LINK_TO_PROPERTY_TABLE" : "NO_LINK",
"LINK_TO_PROPERTY_GROUP_ID" : "DEFAULT",
"COMMENT_DESCRIPTION" : "DEFAULT",
"AUTHOR" : "admin",
"RECORD_INSERTION_TIME" : "1603996409"
},
{
"APPLICATION_GROUP_ID" : "TrackerContextApps",
"APPLICATION_UID" : "TrackerSupervisor0",
"LINK_TO_SUPERVISOR_TABLE" : "FESupervisorTable",
"LINK_TO_SUPERVISOR_UID" : "FETrackerSupervisor0",
"STATUS" : "On",
"CLASS" : "ots::FESupervisor",
"ID" : "400",
"INSTANCE" : "1",
"NETWORK" : "local",
"GROUP" : "daq",
"MODULE" : "${OTSDAQ_LIB}/libCoreSupervisors.so",
"CONFIGURE_PRIORITY" : "40",
"START_PRIORITY" : "40",
"STOP_PRIORITY" : "10",
"LINK_TO_PROPERTY_TABLE" : "NO_LINK",
"LINK_TO_PROPERTY_GROUP_ID" : "DEFAULT",
"COMMENT_DESCRIPTION" : "No Comment",
"AUTHOR" : "admin",
"RECORD_INSERTION_TIME" : "1674147628"
},
{
"APPLICATION_GROUP_ID" : "TrackerContextApps",
"APPLICATION_UID" : "TrackerSupervisor1",
"LINK_TO_SUPERVISOR_TABLE" : "FESupervisorTable",
"LINK_TO_SUPERVISOR_UID" : "FETrackerSupervisor1",
"STATUS" : "Off",
"CLASS" : "ots::FESupervisor",
"ID" : "401",
"INSTANCE" : "1",
"NETWORK" : "local",
"GROUP" : "daq",
"MODULE" : "${OTSDAQ_LIB}/libCoreSupervisors.so",
"CONFIGURE_PRIORITY" : "40",
"START_PRIORITY" : "40",
"STOP_PRIORITY" : "10",
"LINK_TO_PROPERTY_TABLE" : "NO_LINK",
"LINK_TO_PROPERTY_GROUP_ID" : "DEFAULT",
"COMMENT_DESCRIPTION" : "No Comment",
"AUTHOR" : "admin",
"RECORD_INSERTION_TIME" : "1626887300"
},
{
"APPLICATION_GROUP_ID" : "BurninBoxContextApps",
"APPLICATION_UID" : "BurninBoxSupervisor",
"LINK_TO_SUPERVISOR_TABLE" : "FESupervisorTable",
"LINK_TO_SUPERVISOR_UID" : "FEBurninBoxSupervisor",
"STATUS" : "On",
"CLASS" : "ots::FESupervisor",
"ID" : "500",
"INSTANCE" : "1",
"NETWORK" : "local",
"GROUP" : "daq",
"MODULE" : "${OTSDAQ_LIB}/libCoreSupervisors.so",
"CONFIGURE_PRIORITY" : "20",
"START_PRIORITY" : "20",
"STOP_PRIORITY" : "30",
"LINK_TO_PROPERTY_TABLE" : "NO_LINK",
"LINK_TO_PROPERTY_GROUP_ID" : "DEFAULT",
"COMMENT_DESCRIPTION" : "No Comment",
"AUTHOR" : "admin",
"RECORD_INSERTION_TIME" : "1626887300"
},
{
"APPLICATION_GROUP_ID" : "BurninBoxContextApps",
"APPLICATION_UID" : "BurninBoxGUISupervisor",
"LINK_TO_SUPERVISOR_TABLE" : "NO_LINK",
"LINK_TO_SUPERVISOR_UID" : "BurninBoxGUISupervisor",
"STATUS" : "On",
"CLASS" : "ots::BurninBoxGUISupervisor",
"ID" : "501",
"INSTANCE" : "1",
"NETWORK" : "local",
"GROUP" : "daq",
"MODULE" : "${OTSDAQ_CMSBURNINBOX_LIB}/libBurninBoxGUISupervisor.so",
"CONFIGURE_PRIORITY" : "0",
"START_PRIORITY" : "0",
"STOP_PRIORITY" : "0",
"LINK_TO_PROPERTY_TABLE" : "NO_LINK",
"LINK_TO_PROPERTY_GROUP_ID" : "DEFAULT",
"COMMENT_DESCRIPTION" : "No Comment",
"AUTHOR" : "admin",
"RECORD_INSERTION_TIME" : "1676320421"
},
{
"APPLICATION_GROUP_ID" : "PowerSupplyContextApps",
"APPLICATION_UID" : "PowerSupplySupervisor",
"LINK_TO_SUPERVISOR_TABLE" : "FESupervisorTable",
"LINK_TO_SUPERVISOR_UID" : "FEPowerSupplySupervisor",
"STATUS" : "On",
"CLASS" : "ots::FESupervisor",
"ID" : "600",
"INSTANCE" : "1",
"NETWORK" : "local",
"GROUP" : "daq",
"MODULE" : "${OTSDAQ_LIB}/libCoreSupervisors.so",
"CONFIGURE_PRIORITY" : "30",
"START_PRIORITY" : "30",
"STOP_PRIORITY" : "20",
"LINK_TO_PROPERTY_TABLE" : "NO_LINK",
"LINK_TO_PROPERTY_GROUP_ID" : "DEFAULT",
"COMMENT_DESCRIPTION" : "No Comment",
"AUTHOR" : "admin",
"RECORD_INSERTION_TIME" : "1676318915"
},
{
"APPLICATION_GROUP_ID" : "VisualizerContextApp",
"APPLICATION_UID" : "VisualizerSupervisor",
"LINK_TO_SUPERVISOR_TABLE" : "DataManagerSupervisorTable",
"LINK_TO_SUPERVISOR_UID" : "VisualizerSupervisor",
"STATUS" : "On",
"CLASS" : "ots::VisualSupervisor",
"ID" : "700",
"INSTANCE" : "1",
"NETWORK" : "local",
"GROUP" : "daq",
"MODULE" : "${OTSDAQ_UTILITIES_LIB}/libVisualization.so",
"CONFIGURE_PRIORITY" : "10",
"START_PRIORITY" : "10",
"STOP_PRIORITY" : "40",
"LINK_TO_PROPERTY_TABLE" : "NO_LINK",
"LINK_TO_PROPERTY_GROUP_ID" : "DEFAULT",
"COMMENT_DESCRIPTION" : "No Comment",
"AUTHOR" : "admin",
"RECORD_INSERTION_TIME" : "1676318915"
}
]
},
"metadata" : {

},
"search" : [

]
},
"comments" : [

],
"origin" : {
"source" : "template",
"name" : "notprovided",
"format" : "json",
"created" : "2024-08-22T17:05:41.413-0500",
"rawdata" : [

]
},
"version" : "2",
"entities" : [
{
"name" : "OTSROOT",
"assigned" : "2024-08-22T17:05:41.413-0500"
}
],
"configurations" : [
{
"name" : "notprovided",
"assigned" : "2024-08-22T17:05:41.413-0500"
},
{
"name" : "DefaultContext_v2",
"assigned" : "2024-08-22T17:05:41.590-0500"
},
{
"name" : "DefaultContext_v3",
"assigned" : "2024-08-22T17:05:41.819-0500"
}
],
"changelog" : "notprovided",
"bookkeeping" : {
"isdeleted" : false,
"isreadonly" : false,
"updates" : [
{
"event" : "addConfiguration",
"timestamp" : "2024-08-22T17:05:41.413-0500",
"value" : {
"name" : "notprovided",
"assigned" : "2024-08-22T17:05:41.413-0500"
}
},
{
"event" : "setVersion",
"timestamp" : "2024-08-22T17:05:41.413-0500",
"value" : {
"name" : "2",
"assigned" : "2024-08-22T17:05:41.413-0500"
}
},
{
"event" : "setCollection",
"timestamp" : "2024-08-22T17:05:41.413-0500",
"value" : {
"name" : "XDAQApplicationTable",
"assigned" : "2024-08-22T17:05:41.413-0500"
}
},
{
"event" : "addEntity",
"timestamp" : "2024-08-22T17:05:41.413-0500",
"value" : {
"name" : "OTSROOT",
"assigned" : "2024-08-22T17:05:41.413-0500"
}
},
{
"event" : "addConfiguration",
"timestamp" : "2024-08-22T17:05:41.590-0500",
"value" : {
"name" : "DefaultContext_v2",
"assigned" : "2024-08-22T17:05:41.590-0500"
}
},
{
"event" : "addConfiguration",
"timestamp" : "2024-08-22T17:05:41.819-0500",
"value" : {
"name" : "DefaultContext_v3",
"assigned" : "2024-08-22T17:05:41.819-0500"
}
}
],
"created" : "2024-08-22T17:05:41.413-0500"
},
"_id" : {
"$oid" : "d9b83a6badef4b459f5db6b0"
},
"collection" : "XDAQApplicationTable",
"aliases" : {
"active" : [

],
"history" : [

]
},
"runs" : [

],
"attachments" : [

],
"configtype" : "notprovided"
}