{
"ouid" : [
"80e5585826ef4198866f000e"
],
"version" : {
"0" : [
"80e5585826ef4198866f000e"
]
},
"configurations.name" : {
"notprovided" : [
"80e5585826ef4198866f000e"
],
"BurninBoxConfiguration_v0" : [
"80e5585826ef4198866f000e"
],
"BurninBoxConfiguration_v1" : [
"80e5585826ef4198866f000e"
],
"BurninBoxConfiguration_v2" : [
"80e5585826ef4198866f000e"
],
"BurninBoxConfiguration_v3" : [
"80e5585826ef4198866f000e"
],
"BurninBoxConfiguration_v4" : [
"80e5585826ef4198866f000e"
],
"BurninBoxConfiguration_v5" : [
"80e5585826ef4198866f000e"
],
"BurninBoxConfiguration_v6" : [
"80e5585826ef4198866f000e"
]
},
"entities.name" : {
"OTSROOT" : [
"80e5585826ef4198866f000e"
]
},
"aliases.active.name" : {

},
"runs.name" : {

},
"configurations.assigned" : {
"notprovided" : [
"2024-08-22T17:05:40.139-0500"
],
"BurninBoxConfiguration_v0" : [
"2024-08-22T17:05:40.522-0500"
],
"BurninBoxConfiguration_v1" : [
"2024-08-22T17:05:40.996-0500"
],
"BurninBoxConfiguration_v2" : [
"2024-08-22T17:15:54.724-0500"
],
"BurninBoxConfiguration_v3" : [
"2024-10-10T15:24:10.688-0500"
],
"BurninBoxConfiguration_v4" : [
"2024-10-10T15:27:41.918-0500"
],
"BurninBoxConfiguration_v5" : [
"2024-10-10T15:44:13.396-0500"
],
"BurninBoxConfiguration_v6" : [
"2024-10-10T15:51:49.799-0500"
]
}
}