{
"ouid" : [
"76c8b5ddea114b6d8f4ffc35"
],
"version" : {
"2" : [
"76c8b5ddea114b6d8f4ffc35"
]
},
"configurations.name" : {
"notprovided" : [
"76c8b5ddea114b6d8f4ffc35"
],
"DefaultContext_v2" : [
"76c8b5ddea114b6d8f4ffc35"
],
"DefaultContext_v3" : [
"76c8b5ddea114b6d8f4ffc35"
]
},
"entities.name" : {
"OTSROOT" : [
"76c8b5ddea114b6d8f4ffc35"
]
},
"aliases.active.name" : {

},
"runs.name" : {

},
"configurations.assigned" : {
"notprovided" : [
"2024-08-22T17:05:41.337-0500"
],
"DefaultContext_v2" : [
"2024-08-22T17:05:41.519-0500"
],
"DefaultContext_v3" : [
"2024-08-22T17:05:41.748-0500"
]
}
}