{
"ouid" : [
"96b2bac67a2a4fb0958f0e12",
"b727e7cbeb094298bd377757"
],
"version" : {
"0" : [
"96b2bac67a2a4fb0958f0e12"
],
"1" : [
"b727e7cbeb094298bd377757"
]
},
"configurations.name" : {
"notprovided" : [
"96b2bac67a2a4fb0958f0e12",
"b727e7cbeb094298bd377757"
],
"BurninBoxConfiguration_v0" : [
"96b2bac67a2a4fb0958f0e12"
],
"BurninBoxConfiguration_v1" : [
"b727e7cbeb094298bd377757"
]
},
"entities.name" : {
"OTSROOT" : [
"96b2bac67a2a4fb0958f0e12",
"b727e7cbeb094298bd377757"
]
},
"aliases.active.name" : {

},
"runs.name" : {

},
"configurations.assigned" : {
"notprovided" : [
"2024-11-09T09:23:56.616-0600",
"2024-11-09T09:23:57.222-0600"
],
"BurninBoxConfiguration_v0" : [
"2024-11-09T09:23:56.964-0600"
],
"BurninBoxConfiguration_v1" : [
"2024-11-09T09:23:57.426-0600"
]
}
}