{
"ouid" : [
"5bb27667d87749c692e81cd2",
"635e33b6233c4cda8da731c3"
],
"version" : {
"0" : [
"635e33b6233c4cda8da731c3"
],
"1" : [
"5bb27667d87749c692e81cd2"
]
},
"configurations.name" : {
"notprovided" : [
"5bb27667d87749c692e81cd2",
"635e33b6233c4cda8da731c3"
],
"BurninBoxConfiguration_v0" : [
"635e33b6233c4cda8da731c3"
],
"BurninBoxConfiguration_v1" : [
"5bb27667d87749c692e81cd2"
]
},
"entities.name" : {
"OTSROOT" : [
"5bb27667d87749c692e81cd2",
"635e33b6233c4cda8da731c3"
]
},
"aliases.active.name" : {

},
"runs.name" : {

},
"configurations.assigned" : {
"notprovided" : [
"2024-11-09T09:23:56.439-0600",
"2024-11-09T09:23:57.150-0600"
],
"BurninBoxConfiguration_v0" : [
"2024-11-09T09:23:56.827-0600"
],
"BurninBoxConfiguration_v1" : [
"2024-11-09T09:23:57.289-0600"
]
}
}