{
"ouid" : [
"169f3c8cf56f4bb1af86ebd6",
"1be01dce369241e7bc2b66a0"
],
"version" : {
"2" : [
"1be01dce369241e7bc2b66a0"
],
"3" : [
"169f3c8cf56f4bb1af86ebd6"
]
},
"configurations.name" : {
"notprovided" : [
"169f3c8cf56f4bb1af86ebd6",
"1be01dce369241e7bc2b66a0"
]
},
"entities.name" : {
"OTSROOT" : [
"169f3c8cf56f4bb1af86ebd6",
"1be01dce369241e7bc2b66a0"
]
},
"aliases.active.name" : {

},
"runs.name" : {

},
"configurations.assigned" : {
"notprovided" : [
"2024-11-09T09:23:57.894-0600",
"2024-11-09T09:23:58.123-0600"
]
}
}