{
"document" : {
"data" : {
"NAME" : "CAEN_POWER_SUPPLY_CHANNEL_TABLE",
"COMMENT" : "No comment.",
"AUTHOR" : "admin",
"CREATION_TIME" : 1730912046,
"COL_TYPES" : {
"POWER_SUPPLY_GROUP_UID" : "STRING",
"CHANNEL_UID" : "STRING",
"SLOT" : "NUMBER",
"CHANNEL" : "NUMBER",
"IN_USE" : "STRING",
"I0SET" : "NUMBER",
"V0SET" : "NUMBER",
"R_UP" : "NUMBER",
"R_DWN" : "NUMBER",
"TRIP" : "NUMBER",
"R_UP_TIME" : "NUMBER",
"R_DW_TIME" : "NUMBER",
"UNV_THR" : "NUMBER",
"OVV_THR" : "NUMBER",
"COMMENT_DESCRIPTION" : "STRING",
"AUTHOR" : "STRING",
"RECORD_INSERTION_TIME" : "TIMESTAMP WITH TIMEZONE"
},
"DATA_SET" : [
{
"POWER_SUPPLY_GROUP_UID" : "BurninBox",
"CHANNEL_UID" : "Module1L_LV",
"SLOT" : "1",
"CHANNEL" : "0",
"IN_USE" : "Yes",
"I0SET" : "1.5",
"V0SET" : "10.4",
"R_UP" : "0",
"R_DWN" : "0",
"TRIP" : "10",
"R_UP_TIME" : "100",
"R_DW_TIME" : "100",
"UNV_THR" : "9",
"OVV_THR" : "11",
"COMMENT_DESCRIPTION" : "No Comment",
"AUTHOR" : "admin",
"RECORD_INSERTION_TIME" : "1681505936"
},
{
"POWER_SUPPLY_GROUP_UID" : "BurninBox",
"CHANNEL_UID" : "Module1L_HV",
"SLOT" : "5",
"CHANNEL" : "0",
"IN_USE" : "Yes",
"I0SET" : "30",
"V0SET" : "400",
"R_UP" : "50",
"R_DWN" : "50",
"TRIP" : "5",
"R_UP_TIME" : "0",
"R_DW_TIME" : "0",
"UNV_THR" : "0",
"OVV_THR" : "0",
"COMMENT_DESCRIPTION" : "No Comment",
"AUTHOR" : "admin",
"RECORD_INSERTION_TIME" : "1681505936"
},
{
"POWER_SUPPLY_GROUP_UID" : "BurninBox",
"CHANNEL_UID" : "Module2L_LV",
"SLOT" : "1",
"CHANNEL" : "1",
"IN_USE" : "Yes",
"I0SET" : "1.5",
"V0SET" : "10.4",
"R_UP" : "0",
"R_DWN" : "0",
"TRIP" : "10",
"R_UP_TIME" : "100",
"R_DW_TIME" : "100",
"UNV_THR" : "9",
"OVV_THR" : "11",
"COMMENT_DESCRIPTION" : "No Comment",
"AUTHOR" : "admin",
"RECORD_INSERTION_TIME" : "1681505936"
},
{
"POWER_SUPPLY_GROUP_UID" : "BurninBox",
"CHANNEL_UID" : "Module2L_HV",
"SLOT" : "5",
"CHANNEL" : "1",
"IN_USE" : "Yes",
"I0SET" : "30",
"V0SET" : "200",
"R_UP" : "50",
"R_DWN" : "50",
"TRIP" : "5",
"R_UP_TIME" : "0",
"R_DW_TIME" : "0",
"UNV_THR" : "0",
"OVV_THR" : "0",
"COMMENT_DESCRIPTION" : "No Comment",
"AUTHOR" : "admin",
"RECORD_INSERTION_TIME" : "1724360574"
},
{
"POWER_SUPPLY_GROUP_UID" : "BurninBox",
"CHANNEL_UID" : "Module3L_LV",
"SLOT" : "1",
"CHANNEL" : "2",
"IN_USE" : "Yes",
"I0SET" : "1.5",
"V0SET" : "10.4",
"R_UP" : "0",
"R_DWN" : "0",
"TRIP" : "10",
"R_UP_TIME" : "100",
"R_DW_TIME" : "100",
"UNV_THR" : "9",
"OVV_THR" : "11",
"COMMENT_DESCRIPTION" : "No Comment",
"AUTHOR" : "admin",
"RECORD_INSERTION_TIME" : "1681505936"
},
{
"POWER_SUPPLY_GROUP_UID" : "BurninBox",
"CHANNEL_UID" : "Module3L_HV",
"SLOT" : "5",
"CHANNEL" : "2",
"IN_USE" : "Yes",
"I0SET" : "30",
"V0SET" : "200",
"R_UP" : "50",
"R_DWN" : "50",
"TRIP" : "5",
"R_UP_TIME" : "0",
"R_DW_TIME" : "0",
"UNV_THR" : "0",
"OVV_THR" : "0",
"COMMENT_DESCRIPTION" : "No Comment",
"AUTHOR" : "admin",
"RECORD_INSERTION_TIME" : "1730912046"
},
{
"POWER_SUPPLY_GROUP_UID" : "BurninBox",
"CHANNEL_UID" : "Module4L_LV",
"SLOT" : "1",
"CHANNEL" : "3",
"IN_USE" : "Yes",
"I0SET" : "1.5",
"V0SET" : "10.5",
"R_UP" : "0",
"R_DWN" : "0",
"TRIP" : "10",
"R_UP_TIME" : "100",
"R_DW_TIME" : "100",
"UNV_THR" : "9",
"OVV_THR" : "11",
"COMMENT_DESCRIPTION" : "No Comment",
"AUTHOR" : "admin",
"RECORD_INSERTION_TIME" : "1681505936"
},
{
"POWER_SUPPLY_GROUP_UID" : "BurninBox",
"CHANNEL_UID" : "Module4L_HV",
"SLOT" : "5",
"CHANNEL" : "3",
"IN_USE" : "Yes",
"I0SET" : "30",
"V0SET" : "400",
"R_UP" : "50",
"R_DWN" : "50",
"TRIP" : "5",
"R_UP_TIME" : "0",
"R_DW_TIME" : "0",
"UNV_THR" : "0",
"OVV_THR" : "0",
"COMMENT_DESCRIPTION" : "No Comment",
"AUTHOR" : "admin",
"RECORD_INSERTION_TIME" : "1681505936"
},
{
"POWER_SUPPLY_GROUP_UID" : "BurninBox",
"CHANNEL_UID" : "Module5L_LV",
"SLOT" : "3",
"CHANNEL" : "4",
"IN_USE" : "Yes",
"I0SET" : "1.5",
"V0SET" : "10.4",
"R_UP" : "0",
"R_DWN" : "0",
"TRIP" : "10",
"R_UP_TIME" : "100",
"R_DW_TIME" : "100",
"UNV_THR" : "9",
"OVV_THR" : "11",
"COMMENT_DESCRIPTION" : "No Comment",
"AUTHOR" : "admin",
"RECORD_INSERTION_TIME" : "1681837432"
},
{
"POWER_SUPPLY_GROUP_UID" : "BurninBox",
"CHANNEL_UID" : "Module5L_HV",
"SLOT" : "5",
"CHANNEL" : "4",
"IN_USE" : "Yes",
"I0SET" : "30",
"V0SET" : "300",
"R_UP" : "50",
"R_DWN" : "50",
"TRIP" : "5",
"R_UP_TIME" : "0",
"R_DW_TIME" : "0",
"UNV_THR" : "0",
"OVV_THR" : "0",
"COMMENT_DESCRIPTION" : "No Comment",
"AUTHOR" : "admin",
"RECORD_INSERTION_TIME" : "1681837432"
},
{
"POWER_SUPPLY_GROUP_UID" : "BurninBox",
"CHANNEL_UID" : "Module1R_LV",
"SLOT" : "1",
"CHANNEL" : "4",
"IN_USE" : "Yes",
"I0SET" : "1.5",
"V0SET" : "10.4",
"R_UP" : "0",
"R_DWN" : "0",
"TRIP" : "10",
"R_UP_TIME" : "100",
"R_DW_TIME" : "100",
"UNV_THR" : "9",
"OVV_THR" : "11",
"COMMENT_DESCRIPTION" : "No Comment",
"AUTHOR" : "admin",
"RECORD_INSERTION_TIME" : "1681837432"
},
{
"POWER_SUPPLY_GROUP_UID" : "BurninBox",
"CHANNEL_UID" : "Module1R_HV",
"SLOT" : "5",
"CHANNEL" : "5",
"IN_USE" : "Yes",
"I0SET" : "30",
"V0SET" : "300",
"R_UP" : "50",
"R_DWN" : "50",
"TRIP" : "5",
"R_UP_TIME" : "0",
"R_DW_TIME" : "0",
"UNV_THR" : "0",
"OVV_THR" : "0",
"COMMENT_DESCRIPTION" : "No Comment",
"AUTHOR" : "admin",
"RECORD_INSERTION_TIME" : "1681837432"
},
{
"POWER_SUPPLY_GROUP_UID" : "BurninBox",
"CHANNEL_UID" : "Module2R_LV",
"SLOT" : "1",
"CHANNEL" : "5",
"IN_USE" : "Yes",
"I0SET" : "1.5",
"V0SET" : "10.4",
"R_UP" : "0",
"R_DWN" : "0",
"TRIP" : "10",
"R_UP_TIME" : "100",
"R_DW_TIME" : "100",
"UNV_THR" : "9",
"OVV_THR" : "11",
"COMMENT_DESCRIPTION" : "No Comment",
"AUTHOR" : "admin",
"RECORD_INSERTION_TIME" : "1681837432"
},
{
"POWER_SUPPLY_GROUP_UID" : "BurninBox",
"CHANNEL_UID" : "Module2R_HV",
"SLOT" : "5",
"CHANNEL" : "6",
"IN_USE" : "Yes",
"I0SET" : "30",
"V0SET" : "300",
"R_UP" : "50",
"R_DWN" : "50",
"TRIP" : "5",
"R_UP_TIME" : "0",
"R_DW_TIME" : "0",
"UNV_THR" : "0",
"OVV_THR" : "0",
"COMMENT_DESCRIPTION" : "No Comment",
"AUTHOR" : "admin",
"RECORD_INSERTION_TIME" : "1681837432"
},
{
"POWER_SUPPLY_GROUP_UID" : "BurninBox",
"CHANNEL_UID" : "Module3R_LV",
"SLOT" : "1",
"CHANNEL" : "6",
"IN_USE" : "Yes",
"I0SET" : "1.5",
"V0SET" : "10.4",
"R_UP" : "0",
"R_DWN" : "0",
"TRIP" : "10",
"R_UP_TIME" : "100",
"R_DW_TIME" : "100",
"UNV_THR" : "9",
"OVV_THR" : "11",
"COMMENT_DESCRIPTION" : "No Comment",
"AUTHOR" : "admin",
"RECORD_INSERTION_TIME" : "1681837432"
},
{
"POWER_SUPPLY_GROUP_UID" : "BurninBox",
"CHANNEL_UID" : "Module3R_HV",
"SLOT" : "5",
"CHANNEL" : "7",
"IN_USE" : "Yes",
"I0SET" : "30",
"V0SET" : "300",
"R_UP" : "50",
"R_DWN" : "50",
"TRIP" : "5",
"R_UP_TIME" : "0",
"R_DW_TIME" : "0",
"UNV_THR" : "0",
"OVV_THR" : "0",
"COMMENT_DESCRIPTION" : "No Comment",
"AUTHOR" : "admin",
"RECORD_INSERTION_TIME" : "1681837432"
},
{
"POWER_SUPPLY_GROUP_UID" : "BurninBox",
"CHANNEL_UID" : "Module4R_LV",
"SLOT" : "1",
"CHANNEL" : "7",
"IN_USE" : "Yes",
"I0SET" : "1.5",
"V0SET" : "10.4",
"R_UP" : "0",
"R_DWN" : "0",
"TRIP" : "10",
"R_UP_TIME" : "100",
"R_DW_TIME" : "100",
"UNV_THR" : "9",
"OVV_THR" : "11",
"COMMENT_DESCRIPTION" : "No Comment",
"AUTHOR" : "admin",
"RECORD_INSERTION_TIME" : "1681837432"
},
{
"POWER_SUPPLY_GROUP_UID" : "BurninBox",
"CHANNEL_UID" : "Module4R_HV",
"SLOT" : "5",
"CHANNEL" : "8",
"IN_USE" : "Yes",
"I0SET" : "30",
"V0SET" : "300",
"R_UP" : "50",
"R_DWN" : "50",
"TRIP" : "5",
"R_UP_TIME" : "0",
"R_DW_TIME" : "0",
"UNV_THR" : "0",
"OVV_THR" : "0",
"COMMENT_DESCRIPTION" : "No Comment",
"AUTHOR" : "admin",
"RECORD_INSERTION_TIME" : "1681837432"
},
{
"POWER_SUPPLY_GROUP_UID" : "BurninBox",
"CHANNEL_UID" : "Module5R_LV",
"SLOT" : "3",
"CHANNEL" : "5",
"IN_USE" : "Yes",
"I0SET" : "1.5",
"V0SET" : "10.4",
"R_UP" : "0",
"R_DWN" : "0",
"TRIP" : "10",
"R_UP_TIME" : "100",
"R_DW_TIME" : "100",
"UNV_THR" : "9",
"OVV_THR" : "11",
"COMMENT_DESCRIPTION" : "No Comment",
"AUTHOR" : "admin",
"RECORD_INSERTION_TIME" : "1681837432"
},
{
"POWER_SUPPLY_GROUP_UID" : "BurninBox",
"CHANNEL_UID" : "Module5R_HV",
"SLOT" : "5",
"CHANNEL" : "9",
"IN_USE" : "Yes",
"I0SET" : "30",
"V0SET" : "300",
"R_UP" : "50",
"R_DWN" : "50",
"TRIP" : "5",
"R_UP_TIME" : "0",
"R_DW_TIME" : "0",
"UNV_THR" : "0",
"OVV_THR" : "0",
"COMMENT_DESCRIPTION" : "No Comment",
"AUTHOR" : "admin",
"RECORD_INSERTION_TIME" : "1681837432"
}
]
},
"metadata" : {

},
"search" : [

]
},
"comments" : [

],
"origin" : {
"source" : "template",
"name" : "notprovided",
"format" : "json",
"created" : "2024-11-09T09:23:57.137-0600",
"rawdata" : [

]
},
"version" : "1",
"entities" : [
{
"name" : "OTSROOT",
"assigned" : "2024-11-09T09:23:57.137-0600"
}
],
"configurations" : [
{
"name" : "notprovided",
"assigned" : "2024-11-09T09:23:57.137-0600"
},
{
"name" : "BurninBoxConfiguration_v1",
"assigned" : "2024-11-09T09:23:57.274-0600"
}
],
"changelog" : "notprovided",
"bookkeeping" : {
"isdeleted" : false,
"isreadonly" : false,
"updates" : [
{
"event" : "addConfiguration",
"timestamp" : "2024-11-09T09:23:57.137-0600",
"value" : {
"name" : "notprovided",
"assigned" : "2024-11-09T09:23:57.137-0600"
}
},
{
"event" : "setVersion",
"timestamp" : "2024-11-09T09:23:57.137-0600",
"value" : {
"name" : "1",
"assigned" : "2024-11-09T09:23:57.137-0600"
}
},
{
"event" : "setCollection",
"timestamp" : "2024-11-09T09:23:57.137-0600",
"value" : {
"name" : "CAENPowerSupplyChannelTable",
"assigned" : "2024-11-09T09:23:57.137-0600"
}
},
{
"event" : "addEntity",
"timestamp" : "2024-11-09T09:23:57.137-0600",
"value" : {
"name" : "OTSROOT",
"assigned" : "2024-11-09T09:23:57.137-0600"
}
},
{
"event" : "addConfiguration",
"timestamp" : "2024-11-09T09:23:57.274-0600",
"value" : {
"name" : "BurninBoxConfiguration_v1",
"assigned" : "2024-11-09T09:23:57.274-0600"
}
}
],
"created" : "2024-11-09T09:23:57.137-0600"
},
"_id" : {
"$oid" : "14ec5bce609e4c86ab6bf09b"
},
"collection" : "CAENPowerSupplyChannelTable",
"aliases" : {
"active" : [

],
"history" : [

]
},
"runs" : [

],
"attachments" : [

],
"configtype" : "notprovided"
}