{
"document" : {
"data" : {
"NAME" : "POWER_SUPPLY_TO_DETECTOR_TABLE",
"COMMENT" : "No comment.",
"AUTHOR" : "admin",
"CREATION_TIME" : 1681852467,
"COL_TYPES" : {
"FE_INTERFACE_GROUP_ID" : "STRING",
"UID" : "STRING",
"LINK_TO_CHANNEL_TABLE" : "STRING",
"LINK_TO_CHANNEL_UID" : "STRING",
"CHANNEL_TYPE" : "STRING",
"CHANNEL_GROUP" : "STRING",
"TURN_ON_OFF" : "STRING",
"TURN_ON_SEQUENCE" : "NUMBER",
"TURN_ON_WAIT_FOR_CHANNEL_UID" : "STRING",
"TURN_OFF_SEQUENCE" : "NUMBER",
"TURN_OFF_WAIT_FOR_CHANNEL_UID" : "STRING",
"HISTO_COLOR" : "NUMBER",
"COMMENT_DESCRIPTION" : "STRING",
"AUTHOR" : "STRING",
"RECORD_INSERTION_TIME" : "TIMESTAMP WITH TIMEZONE"
},
"DATA_SET" : [
{
"FE_INTERFACE_GROUP_ID" : "BurninBox",
"UID" : "Module1L_LV",
"LINK_TO_CHANNEL_TABLE" : "CAENPowerSupplyChannelTable",
"LINK_TO_CHANNEL_UID" : "Module1L_LV",
"CHANNEL_TYPE" : "LV",
"CHANNEL_GROUP" : "Burnin",
"TURN_ON_OFF" : "No",
"TURN_ON_SEQUENCE" : "0",
"TURN_ON_WAIT_FOR_CHANNEL_UID" : "NONE",
"TURN_OFF_SEQUENCE" : "10",
"TURN_OFF_WAIT_FOR_CHANNEL_UID" : "Module1L_HV",
"HISTO_COLOR" : "1",
"COMMENT_DESCRIPTION" : "No Comment",
"AUTHOR" : "admin",
"RECORD_INSERTION_TIME" : "1681852467"
},
{
"FE_INTERFACE_GROUP_ID" : "BurninBox",
"UID" : "Module1L_HV",
"LINK_TO_CHANNEL_TABLE" : "CAENPowerSupplyChannelTable",
"LINK_TO_CHANNEL_UID" : "Module1L_HV",
"CHANNEL_TYPE" : "HV",
"CHANNEL_GROUP" : "Burnin",
"TURN_ON_OFF" : "No",
"TURN_ON_SEQUENCE" : "10",
"TURN_ON_WAIT_FOR_CHANNEL_UID" : "Module1L_LV",
"TURN_OFF_SEQUENCE" : "0",
"TURN_OFF_WAIT_FOR_CHANNEL_UID" : "NONE",
"HISTO_COLOR" : "1",
"COMMENT_DESCRIPTION" : "No Comment",
"AUTHOR" : "admin",
"RECORD_INSERTION_TIME" : "1681852467"
},
{
"FE_INTERFACE_GROUP_ID" : "BurninBox",
"UID" : "Module2L_LV",
"LINK_TO_CHANNEL_TABLE" : "CAENPowerSupplyChannelTable",
"LINK_TO_CHANNEL_UID" : "Module2L_LV",
"CHANNEL_TYPE" : "LV",
"CHANNEL_GROUP" : "Burnin",
"TURN_ON_OFF" : "No",
"TURN_ON_SEQUENCE" : "1",
"TURN_ON_WAIT_FOR_CHANNEL_UID" : "NONE",
"TURN_OFF_SEQUENCE" : "11",
"TURN_OFF_WAIT_FOR_CHANNEL_UID" : "Module2L_HV",
"HISTO_COLOR" : "1",
"COMMENT_DESCRIPTION" : "No Comment",
"AUTHOR" : "admin",
"RECORD_INSERTION_TIME" : "1681852467"
},
{
"FE_INTERFACE_GROUP_ID" : "BurninBox",
"UID" : "Module2L_HV",
"LINK_TO_CHANNEL_TABLE" : "CAENPowerSupplyChannelTable",
"LINK_TO_CHANNEL_UID" : "Module2L_HV",
"CHANNEL_TYPE" : "HV",
"CHANNEL_GROUP" : "Burnin",
"TURN_ON_OFF" : "No",
"TURN_ON_SEQUENCE" : "11",
"TURN_ON_WAIT_FOR_CHANNEL_UID" : "Module2L_LV",
"TURN_OFF_SEQUENCE" : "1",
"TURN_OFF_WAIT_FOR_CHANNEL_UID" : "NONE",
"HISTO_COLOR" : "1",
"COMMENT_DESCRIPTION" : "No Comment",
"AUTHOR" : "admin",
"RECORD_INSERTION_TIME" : "1681852467"
},
{
"FE_INTERFACE_GROUP_ID" : "BurninBox",
"UID" : "Module3L_LV",
"LINK_TO_CHANNEL_TABLE" : "CAENPowerSupplyChannelTable",
"LINK_TO_CHANNEL_UID" : "Module3L_LV",
"CHANNEL_TYPE" : "LV",
"CHANNEL_GROUP" : "Burnin",
"TURN_ON_OFF" : "No",
"TURN_ON_SEQUENCE" : "2",
"TURN_ON_WAIT_FOR_CHANNEL_UID" : "NONE",
"TURN_OFF_SEQUENCE" : "12",
"TURN_OFF_WAIT_FOR_CHANNEL_UID" : "Module3L_HV",
"HISTO_COLOR" : "1",
"COMMENT_DESCRIPTION" : "No Comment",
"AUTHOR" : "admin",
"RECORD_INSERTION_TIME" : "1681852467"
},
{
"FE_INTERFACE_GROUP_ID" : "BurninBox",
"UID" : "Module3L_HV",
"LINK_TO_CHANNEL_TABLE" : "CAENPowerSupplyChannelTable",
"LINK_TO_CHANNEL_UID" : "Module3L_HV",
"CHANNEL_TYPE" : "HV",
"CHANNEL_GROUP" : "Burnin",
"TURN_ON_OFF" : "No",
"TURN_ON_SEQUENCE" : "12",
"TURN_ON_WAIT_FOR_CHANNEL_UID" : "Module3L_LV",
"TURN_OFF_SEQUENCE" : "2",
"TURN_OFF_WAIT_FOR_CHANNEL_UID" : "NONE",
"HISTO_COLOR" : "1",
"COMMENT_DESCRIPTION" : "No Comment",
"AUTHOR" : "admin",
"RECORD_INSERTION_TIME" : "1681852467"
},
{
"FE_INTERFACE_GROUP_ID" : "BurninBox",
"UID" : "Module4L_LV",
"LINK_TO_CHANNEL_TABLE" : "CAENPowerSupplyChannelTable",
"LINK_TO_CHANNEL_UID" : "Module4L_LV",
"CHANNEL_TYPE" : "LV",
"CHANNEL_GROUP" : "Burnin",
"TURN_ON_OFF" : "No",
"TURN_ON_SEQUENCE" : "3",
"TURN_ON_WAIT_FOR_CHANNEL_UID" : "NONE",
"TURN_OFF_SEQUENCE" : "13",
"TURN_OFF_WAIT_FOR_CHANNEL_UID" : "Module4L_HV",
"HISTO_COLOR" : "1",
"COMMENT_DESCRIPTION" : "No Comment",
"AUTHOR" : "admin",
"RECORD_INSERTION_TIME" : "1681852467"
},
{
"FE_INTERFACE_GROUP_ID" : "BurninBox",
"UID" : "Module4L_HV",
"LINK_TO_CHANNEL_TABLE" : "CAENPowerSupplyChannelTable",
"LINK_TO_CHANNEL_UID" : "Module4L_HV",
"CHANNEL_TYPE" : "HV",
"CHANNEL_GROUP" : "Burnin",
"TURN_ON_OFF" : "No",
"TURN_ON_SEQUENCE" : "13",
"TURN_ON_WAIT_FOR_CHANNEL_UID" : "Module4L_LV",
"TURN_OFF_SEQUENCE" : "3",
"TURN_OFF_WAIT_FOR_CHANNEL_UID" : "NONE",
"HISTO_COLOR" : "1",
"COMMENT_DESCRIPTION" : "No Comment",
"AUTHOR" : "admin",
"RECORD_INSERTION_TIME" : "1681852467"
},
{
"FE_INTERFACE_GROUP_ID" : "BurninBox",
"UID" : "Modul5L_LV",
"LINK_TO_CHANNEL_TABLE" : "CAENPowerSupplyChannelTable",
"LINK_TO_CHANNEL_UID" : "Module5L_LV",
"CHANNEL_TYPE" : "LV",
"CHANNEL_GROUP" : "Burnin",
"TURN_ON_OFF" : "Yes",
"TURN_ON_SEQUENCE" : "4",
"TURN_ON_WAIT_FOR_CHANNEL_UID" : "NONE",
"TURN_OFF_SEQUENCE" : "14",
"TURN_OFF_WAIT_FOR_CHANNEL_UID" : "Module5L_HV",
"HISTO_COLOR" : "1",
"COMMENT_DESCRIPTION" : "No Comment",
"AUTHOR" : "admin",
"RECORD_INSERTION_TIME" : "1681852467"
},
{
"FE_INTERFACE_GROUP_ID" : "BurninBox",
"UID" : "Module5L_HV",
"LINK_TO_CHANNEL_TABLE" : "CAENPowerSupplyChannelTable",
"LINK_TO_CHANNEL_UID" : "Module5L_HV",
"CHANNEL_TYPE" : "HV",
"CHANNEL_GROUP" : "Burnin",
"TURN_ON_OFF" : "Yes",
"TURN_ON_SEQUENCE" : "14",
"TURN_ON_WAIT_FOR_CHANNEL_UID" : "Module5L_LV",
"TURN_OFF_SEQUENCE" : "4",
"TURN_OFF_WAIT_FOR_CHANNEL_UID" : "NONE",
"HISTO_COLOR" : "1",
"COMMENT_DESCRIPTION" : "No Comment",
"AUTHOR" : "admin",
"RECORD_INSERTION_TIME" : "1681852467"
},
{
"FE_INTERFACE_GROUP_ID" : "BurninBox",
"UID" : "Module1R_LV",
"LINK_TO_CHANNEL_TABLE" : "CAENPowerSupplyChannelTable",
"LINK_TO_CHANNEL_UID" : "Module1R_LV",
"CHANNEL_TYPE" : "LV",
"CHANNEL_GROUP" : "Burnin",
"TURN_ON_OFF" : "Yes",
"TURN_ON_SEQUENCE" : "5",
"TURN_ON_WAIT_FOR_CHANNEL_UID" : "NONE",
"TURN_OFF_SEQUENCE" : "15",
"TURN_OFF_WAIT_FOR_CHANNEL_UID" : "Module1R_HV",
"HISTO_COLOR" : "1",
"COMMENT_DESCRIPTION" : "No Comment",
"AUTHOR" : "admin",
"RECORD_INSERTION_TIME" : "1681852467"
},
{
"FE_INTERFACE_GROUP_ID" : "BurninBox",
"UID" : "Module1R_HV",
"LINK_TO_CHANNEL_TABLE" : "CAENPowerSupplyChannelTable",
"LINK_TO_CHANNEL_UID" : "Module1R_HV",
"CHANNEL_TYPE" : "HV",
"CHANNEL_GROUP" : "Burnin",
"TURN_ON_OFF" : "Yes",
"TURN_ON_SEQUENCE" : "15",
"TURN_ON_WAIT_FOR_CHANNEL_UID" : "Module1R_LV",
"TURN_OFF_SEQUENCE" : "5",
"TURN_OFF_WAIT_FOR_CHANNEL_UID" : "NONE",
"HISTO_COLOR" : "1",
"COMMENT_DESCRIPTION" : "No Comment",
"AUTHOR" : "admin",
"RECORD_INSERTION_TIME" : "1681852467"
},
{
"FE_INTERFACE_GROUP_ID" : "BurninBox",
"UID" : "Module2R_LV",
"LINK_TO_CHANNEL_TABLE" : "CAENPowerSupplyChannelTable",
"LINK_TO_CHANNEL_UID" : "Module2R_LV",
"CHANNEL_TYPE" : "LV",
"CHANNEL_GROUP" : "Burnin",
"TURN_ON_OFF" : "Yes",
"TURN_ON_SEQUENCE" : "6",
"TURN_ON_WAIT_FOR_CHANNEL_UID" : "NONE",
"TURN_OFF_SEQUENCE" : "16",
"TURN_OFF_WAIT_FOR_CHANNEL_UID" : "Module2R_HV",
"HISTO_COLOR" : "1",
"COMMENT_DESCRIPTION" : "No Comment",
"AUTHOR" : "admin",
"RECORD_INSERTION_TIME" : "1681852467"
},
{
"FE_INTERFACE_GROUP_ID" : "BurninBox",
"UID" : "Module2R_HV",
"LINK_TO_CHANNEL_TABLE" : "CAENPowerSupplyChannelTable",
"LINK_TO_CHANNEL_UID" : "Module2R_HV",
"CHANNEL_TYPE" : "HV",
"CHANNEL_GROUP" : "Burnin",
"TURN_ON_OFF" : "Yes",
"TURN_ON_SEQUENCE" : "16",
"TURN_ON_WAIT_FOR_CHANNEL_UID" : "Module2R_LV",
"TURN_OFF_SEQUENCE" : "6",
"TURN_OFF_WAIT_FOR_CHANNEL_UID" : "NONE",
"HISTO_COLOR" : "1",
"COMMENT_DESCRIPTION" : "No Comment",
"AUTHOR" : "admin",
"RECORD_INSERTION_TIME" : "1681852467"
},
{
"FE_INTERFACE_GROUP_ID" : "BurninBox",
"UID" : "Module3R_LV",
"LINK_TO_CHANNEL_TABLE" : "CAENPowerSupplyChannelTable",
"LINK_TO_CHANNEL_UID" : "Module3R_LV",
"CHANNEL_TYPE" : "LV",
"CHANNEL_GROUP" : "Burnin",
"TURN_ON_OFF" : "No",
"TURN_ON_SEQUENCE" : "7",
"TURN_ON_WAIT_FOR_CHANNEL_UID" : "NONE",
"TURN_OFF_SEQUENCE" : "17",
"TURN_OFF_WAIT_FOR_CHANNEL_UID" : "Module3R_HV",
"HISTO_COLOR" : "1",
"COMMENT_DESCRIPTION" : "No Comment",
"AUTHOR" : "admin",
"RECORD_INSERTION_TIME" : "1681852467"
},
{
"FE_INTERFACE_GROUP_ID" : "BurninBox",
"UID" : "Module3R_HV",
"LINK_TO_CHANNEL_TABLE" : "CAENPowerSupplyChannelTable",
"LINK_TO_CHANNEL_UID" : "Module3R_HV",
"CHANNEL_TYPE" : "HV",
"CHANNEL_GROUP" : "Burnin",
"TURN_ON_OFF" : "No",
"TURN_ON_SEQUENCE" : "17",
"TURN_ON_WAIT_FOR_CHANNEL_UID" : "Module3R_LV",
"TURN_OFF_SEQUENCE" : "7",
"TURN_OFF_WAIT_FOR_CHANNEL_UID" : "NONE",
"HISTO_COLOR" : "1",
"COMMENT_DESCRIPTION" : "No Comment",
"AUTHOR" : "admin",
"RECORD_INSERTION_TIME" : "1681852467"
},
{
"FE_INTERFACE_GROUP_ID" : "BurninBox",
"UID" : "Module4R_LV",
"LINK_TO_CHANNEL_TABLE" : "CAENPowerSupplyChannelTable",
"LINK_TO_CHANNEL_UID" : "Module4R_LV",
"CHANNEL_TYPE" : "LV",
"CHANNEL_GROUP" : "Burnin",
"TURN_ON_OFF" : "No",
"TURN_ON_SEQUENCE" : "8",
"TURN_ON_WAIT_FOR_CHANNEL_UID" : "NONE",
"TURN_OFF_SEQUENCE" : "18",
"TURN_OFF_WAIT_FOR_CHANNEL_UID" : "Module4R_HV",
"HISTO_COLOR" : "1",
"COMMENT_DESCRIPTION" : "No Comment",
"AUTHOR" : "admin",
"RECORD_INSERTION_TIME" : "1681852467"
},
{
"FE_INTERFACE_GROUP_ID" : "BurninBox",
"UID" : "Module4R_HV",
"LINK_TO_CHANNEL_TABLE" : "CAENPowerSupplyChannelTable",
"LINK_TO_CHANNEL_UID" : "Module4R_HV",
"CHANNEL_TYPE" : "HV",
"CHANNEL_GROUP" : "Burnin",
"TURN_ON_OFF" : "No",
"TURN_ON_SEQUENCE" : "18",
"TURN_ON_WAIT_FOR_CHANNEL_UID" : "Module4R_LV",
"TURN_OFF_SEQUENCE" : "8",
"TURN_OFF_WAIT_FOR_CHANNEL_UID" : "NONE",
"HISTO_COLOR" : "1",
"COMMENT_DESCRIPTION" : "No Comment",
"AUTHOR" : "admin",
"RECORD_INSERTION_TIME" : "1681852467"
},
{
"FE_INTERFACE_GROUP_ID" : "BurninBox",
"UID" : "Module5R_LV",
"LINK_TO_CHANNEL_TABLE" : "CAENPowerSupplyChannelTable",
"LINK_TO_CHANNEL_UID" : "Module5R_LV",
"CHANNEL_TYPE" : "LV",
"CHANNEL_GROUP" : "Burnin",
"TURN_ON_OFF" : "No",
"TURN_ON_SEQUENCE" : "9",
"TURN_ON_WAIT_FOR_CHANNEL_UID" : "NONE",
"TURN_OFF_SEQUENCE" : "19",
"TURN_OFF_WAIT_FOR_CHANNEL_UID" : "Module5R_HV",
"HISTO_COLOR" : "1",
"COMMENT_DESCRIPTION" : "No Comment",
"AUTHOR" : "admin",
"RECORD_INSERTION_TIME" : "1681852467"
},
{
"FE_INTERFACE_GROUP_ID" : "BurninBox",
"UID" : "Module5R_HV",
"LINK_TO_CHANNEL_TABLE" : "CAENPowerSupplyChannelTable",
"LINK_TO_CHANNEL_UID" : "Module5R_HV",
"CHANNEL_TYPE" : "HV",
"CHANNEL_GROUP" : "Burnin",
"TURN_ON_OFF" : "No",
"TURN_ON_SEQUENCE" : "19",
"TURN_ON_WAIT_FOR_CHANNEL_UID" : "Module5R_LV",
"TURN_OFF_SEQUENCE" : "9",
"TURN_OFF_WAIT_FOR_CHANNEL_UID" : "NONE",
"HISTO_COLOR" : "1",
"COMMENT_DESCRIPTION" : "No Comment",
"AUTHOR" : "admin",
"RECORD_INSERTION_TIME" : "1681852467"
}
]
},
"metadata" : {

},
"search" : [

]
},
"comments" : [

],
"origin" : {
"source" : "template",
"name" : "notprovided",
"format" : "json",
"created" : "2024-11-09T09:23:56.686-0600",
"rawdata" : [

]
},
"version" : "0",
"entities" : [
{
"name" : "OTSROOT",
"assigned" : "2024-11-09T09:23:56.686-0600"
}
],
"configurations" : [
{
"name" : "notprovided",
"assigned" : "2024-11-09T09:23:56.686-0600"
},
{
"name" : "BurninBoxConfiguration_v0",
"assigned" : "2024-11-09T09:23:57.021-0600"
}
],
"changelog" : "notprovided",
"bookkeeping" : {
"isdeleted" : false,
"isreadonly" : false,
"updates" : [
{
"event" : "addConfiguration",
"timestamp" : "2024-11-09T09:23:56.686-0600",
"value" : {
"name" : "notprovided",
"assigned" : "2024-11-09T09:23:56.686-0600"
}
},
{
"event" : "setVersion",
"timestamp" : "2024-11-09T09:23:56.686-0600",
"value" : {
"name" : "0",
"assigned" : "2024-11-09T09:23:56.686-0600"
}
},
{
"event" : "setCollection",
"timestamp" : "2024-11-09T09:23:56.686-0600",
"value" : {
"name" : "PowerSupplyToDetectorTable",
"assigned" : "2024-11-09T09:23:56.686-0600"
}
},
{
"event" : "addEntity",
"timestamp" : "2024-11-09T09:23:56.686-0600",
"value" : {
"name" : "OTSROOT",
"assigned" : "2024-11-09T09:23:56.686-0600"
}
},
{
"event" : "addConfiguration",
"timestamp" : "2024-11-09T09:23:57.021-0600",
"value" : {
"name" : "BurninBoxConfiguration_v0",
"assigned" : "2024-11-09T09:23:57.021-0600"
}
}
],
"created" : "2024-11-09T09:23:56.686-0600"
},
"_id" : {
"$oid" : "72166401d62549bcba6b2160"
},
"collection" : "PowerSupplyToDetectorTable",
"aliases" : {
"active" : [

],
"history" : [

]
},
"runs" : [

],
"attachments" : [

],
"configtype" : "notprovided"
}