{
"ouid" : [
"b6b2cd187c2c4b84b70593bc"
],
"version" : {
"5" : [
"b6b2cd187c2c4b84b70593bc"
]
},
"configurations.name" : {
"notprovided" : [
"b6b2cd187c2c4b84b70593bc"
],
"iterateDefaultGroup_v5" : [
"b6b2cd187c2c4b84b70593bc"
]
},
"entities.name" : {
"OTSROOT" : [
"b6b2cd187c2c4b84b70593bc"
]
},
"aliases.active.name" : {

},
"runs.name" : {

},
"configurations.assigned" : {
"notprovided" : [
"2024-11-09T09:23:58.317-0600"
],
"iterateDefaultGroup_v5" : [
"2024-11-09T09:23:58.572-0600"
]
}
}