{
"document" : {
"data" : {
"NAME" : "POWER_SUPPLY_DEVICE_TABLE",
"COMMENT" : "No comment.",
"AUTHOR" : "admin",
"CREATION_TIME" : 1603990464,
"COL_TYPES" : {
"POWER_SUPPLY_GROUP_ID" : "STRING",
"POWER_SUPPLY_DEVICE_UID" : "STRING",
"STATUS" : "STRING",
"LINK_TO_POWER_SUPPLY_TABLE" : "STRING",
"LINK_TO_POWER_SUPPLY_UID" : "STRING",
"COMMENT_DESCRIPTION" : "STRING",
"AUTHOR" : "STRING",
"RECORD_INSERTION_TIME" : "TIMESTAMP WITH TIMEZONE"
},
"DATA_SET" : [
{
"POWER_SUPPLY_GROUP_ID" : "BurninBox",
"POWER_SUPPLY_DEVICE_UID" : "CAENBurninBox",
"STATUS" : "On",
"LINK_TO_POWER_SUPPLY_TABLE" : "CAENPowerSupplyTable",
"LINK_TO_POWER_SUPPLY_UID" : "BurninBox",
"COMMENT_DESCRIPTION" : "No Comment",
"AUTHOR" : "admin",
"RECORD_INSERTION_TIME" : "1603990430"
}
]
},
"metadata" : {

},
"search" : [

]
},
"comments" : [

],
"origin" : {
"source" : "template",
"name" : "notprovided",
"format" : "json",
"created" : "2024-11-09T09:23:56.668-0600",
"rawdata" : [

]
},
"version" : "0",
"entities" : [
{
"name" : "OTSROOT",
"assigned" : "2024-11-09T09:23:56.669-0600"
}
],
"configurations" : [
{
"name" : "notprovided",
"assigned" : "2024-11-09T09:23:56.668-0600"
},
{
"name" : "BurninBoxConfiguration_v0",
"assigned" : "2024-11-09T09:23:57.007-0600"
},
{
"name" : "BurninBoxConfiguration_v1",
"assigned" : "2024-11-09T09:23:57.468-0600"
}
],
"changelog" : "notprovided",
"bookkeeping" : {
"isdeleted" : false,
"isreadonly" : false,
"updates" : [
{
"event" : "addConfiguration",
"timestamp" : "2024-11-09T09:23:56.668-0600",
"value" : {
"name" : "notprovided",
"assigned" : "2024-11-09T09:23:56.668-0600"
}
},
{
"event" : "setVersion",
"timestamp" : "2024-11-09T09:23:56.668-0600",
"value" : {
"name" : "0",
"assigned" : "2024-11-09T09:23:56.668-0600"
}
},
{
"event" : "setCollection",
"timestamp" : "2024-11-09T09:23:56.669-0600",
"value" : {
"name" : "PowerSupplyDeviceTable",
"assigned" : "2024-11-09T09:23:56.669-0600"
}
},
{
"event" : "addEntity",
"timestamp" : "2024-11-09T09:23:56.669-0600",
"value" : {
"name" : "OTSROOT",
"assigned" : "2024-11-09T09:23:56.669-0600"
}
},
{
"event" : "addConfiguration",
"timestamp" : "2024-11-09T09:23:57.007-0600",
"value" : {
"name" : "BurninBoxConfiguration_v0",
"assigned" : "2024-11-09T09:23:57.007-0600"
}
},
{
"event" : "addConfiguration",
"timestamp" : "2024-11-09T09:23:57.468-0600",
"value" : {
"name" : "BurninBoxConfiguration_v1",
"assigned" : "2024-11-09T09:23:57.468-0600"
}
}
],
"created" : "2024-11-09T09:23:56.668-0600"
},
"_id" : {
"$oid" : "dc504745723c4afeacda7d77"
},
"collection" : "PowerSupplyDeviceTable",
"aliases" : {
"active" : [

],
"history" : [

]
},
"runs" : [

],
"attachments" : [

],
"configtype" : "notprovided"
}