{
"ouid" : [
"0be8d76e751a4fa7a3d82c22"
],
"version" : {
"5" : [
"0be8d76e751a4fa7a3d82c22"
]
},
"configurations.name" : {
"notprovided" : [
"0be8d76e751a4fa7a3d82c22"
],
"iterateDefaultGroup_v5" : [
"0be8d76e751a4fa7a3d82c22"
]
},
"entities.name" : {
"OTSROOT" : [
"0be8d76e751a4fa7a3d82c22"
]
},
"aliases.active.name" : {

},
"runs.name" : {

},
"configurations.assigned" : {
"notprovided" : [
"2024-11-09T09:23:58.392-0600"
],
"iterateDefaultGroup_v5" : [
"2024-11-09T09:23:58.635-0600"
]
}
}