{
"document" : {
"data" : {
"NAME" : "FE_MIDDLEWARE_INTERFACE_TABLE",
"COMMENT" : "No comment.",
"AUTHOR" : "admin",
"CREATION_TIME" : 1728592061,
"COL_TYPES" : {
"INTERFACE_ID" : "STRING",
"INTERFACE_IP_ADDRESS" : "STRING",
"INTERFACE_PORT" : "NUMBER",
"CALIBRATION_NAME" : "STRING",
"CONFIGURATION_DIR" : "STRING",
"CONFIGURATION_NAME" : "STRING",
"COMMENT_DESCRIPTION" : "STRING",
"AUTHOR" : "STRING",
"RECORD_INSERTION_TIME" : "TIMESTAMP WITH TIMEZONE"
},
"DATA_SET" : [
{
"INTERFACE_ID" : "FETrackerInterface0",
"INTERFACE_IP_ADDRESS" : "localhost",
"INTERFACE_PORT" : "5000",
"CALIBRATION_NAME" : "alignment",
"CONFIGURATION_DIR" : "${PH2ACF_BASE_DIR}/settings",
"CONFIGURATION_NAME" : "2S_10Modules_Burnin.xml",
"COMMENT_DESCRIPTION" : "No Comment",
"AUTHOR" : "admin",
"RECORD_INSERTION_TIME" : "1728592051"
},
{
"INTERFACE_ID" : "FETrackerInterface1",
"INTERFACE_IP_ADDRESS" : "localhost.localdomain",
"INTERFACE_PORT" : "5000",
"CALIBRATION_NAME" : "calibrationandpedenoise",
"CONFIGURATION_DIR" : "settings",
"CONFIGURATION_NAME" : "D19CDescription_2CBC3_Feynman.xml",
"COMMENT_DESCRIPTION" : "No Comment",
"AUTHOR" : "admin",
"RECORD_INSERTION_TIME" : "1601935854"
}
]
},
"metadata" : {

},
"search" : [

]
},
"comments" : [

],
"origin" : {
"source" : "template",
"name" : "notprovided",
"format" : "json",
"created" : "2024-10-10T15:27:41.629-0500",
"rawdata" : [

]
},
"version" : "2",
"entities" : [
{
"name" : "OTSROOT",
"assigned" : "2024-10-10T15:27:41.629-0500"
}
],
"configurations" : [
{
"name" : "notprovided",
"assigned" : "2024-10-10T15:27:41.629-0500"
},
{
"name" : "BurninBoxConfiguration_v4",
"assigned" : "2024-10-10T15:27:42.067-0500"
}
],
"changelog" : "notprovided",
"bookkeeping" : {
"isdeleted" : false,
"isreadonly" : false,
"updates" : [
{
"event" : "addConfiguration",
"timestamp" : "2024-10-10T15:27:41.629-0500",
"value" : {
"name" : "notprovided",
"assigned" : "2024-10-10T15:27:41.629-0500"
}
},
{
"event" : "setVersion",
"timestamp" : "2024-10-10T15:27:41.629-0500",
"value" : {
"name" : "2",
"assigned" : "2024-10-10T15:27:41.629-0500"
}
},
{
"event" : "setCollection",
"timestamp" : "2024-10-10T15:27:41.629-0500",
"value" : {
"name" : "FEMiddlewareInterfaceTable",
"assigned" : "2024-10-10T15:27:41.629-0500"
}
},
{
"event" : "addEntity",
"timestamp" : "2024-10-10T15:27:41.629-0500",
"value" : {
"name" : "OTSROOT",
"assigned" : "2024-10-10T15:27:41.629-0500"
}
},
{
"event" : "addConfiguration",
"timestamp" : "2024-10-10T15:27:42.067-0500",
"value" : {
"name" : "BurninBoxConfiguration_v4",
"assigned" : "2024-10-10T15:27:42.067-0500"
}
}
],
"created" : "2024-10-10T15:27:41.629-0500"
},
"_id" : {
"$oid" : "122b3c1c9a5d41df8c34d41c"
},
"collection" : "FEMiddlewareInterfaceTable",
"aliases" : {
"active" : [

],
"history" : [

]
},
"runs" : [

],
"attachments" : [

],
"configtype" : "notprovided"
}