{
"ouid" : [
"250ec697fef64dbd81e0c6b2"
],
"version" : {
"5" : [
"250ec697fef64dbd81e0c6b2"
]
},
"configurations.name" : {
"notprovided" : [
"250ec697fef64dbd81e0c6b2"
],
"iterateDefaultGroup_v5" : [
"250ec697fef64dbd81e0c6b2"
],
"iterateDefaultGroup_v6" : [
"250ec697fef64dbd81e0c6b2"
],
"iterateDefaultGroup_v7" : [
"250ec697fef64dbd81e0c6b2"
],
"iterateDefaultGroup_v8" : [
"250ec697fef64dbd81e0c6b2"
],
"iterateDefaultGroup_v9" : [
"250ec697fef64dbd81e0c6b2"
],
"iterateDefaultGroup_v10" : [
"250ec697fef64dbd81e0c6b2"
],
"iterateDefaultGroup_v11" : [
"250ec697fef64dbd81e0c6b2"
],
"iterateDefaultGroup_v12" : [
"250ec697fef64dbd81e0c6b2"
],
"iterateDefaultGroup_v13" : [
"250ec697fef64dbd81e0c6b2"
],
"iterateDefaultGroup_v14" : [
"250ec697fef64dbd81e0c6b2"
],
"iterateDefaultGroup_v15" : [
"250ec697fef64dbd81e0c6b2"
]
},
"entities.name" : {
"OTSROOT" : [
"250ec697fef64dbd81e0c6b2"
]
},
"aliases.active.name" : {

},
"runs.name" : {

},
"configurations.assigned" : {
"notprovided" : [
"2024-11-09T09:23:58.447-0600"
],
"iterateDefaultGroup_v5" : [
"2024-11-09T09:23:58.679-0600"
],
"iterateDefaultGroup_v6" : [
"2024-11-12T14:13:08.982-0600"
],
"iterateDefaultGroup_v7" : [
"2024-12-16T10:45:57.674-0600"
],
"iterateDefaultGroup_v8" : [
"2024-12-16T10:47:42.312-0600"
],
"iterateDefaultGroup_v9" : [
"2024-12-16T15:31:18.368-0600"
],
"iterateDefaultGroup_v10" : [
"2024-12-17T15:07:45.794-0600"
],
"iterateDefaultGroup_v11" : [
"2024-12-17T23:45:27.075-0600"
],
"iterateDefaultGroup_v12" : [
"2024-12-18T10:28:23.281-0600"
],
"iterateDefaultGroup_v13" : [
"2024-12-18T12:45:26.997-0600"
],
"iterateDefaultGroup_v14" : [
"2024-12-19T18:17:05.509-0600"
],
"iterateDefaultGroup_v15" : [
"2024-12-19T18:17:59.787-0600"
]
}
}