{
"ouid" : [
"00f5dfcce9ed4c4f86c1bc9a",
"232ee7b19c734802b38df6b4",
"264b3498004a43938ed02732",
"51d743cad4864703bce54444",
"bcaab786ad73404e89c10712",
"e346f5a9d647401f83e8a0e4"
],
"version" : {
"0" : [
"232ee7b19c734802b38df6b4"
],
"1" : [
"e346f5a9d647401f83e8a0e4"
],
"2" : [
"51d743cad4864703bce54444"
],
"3" : [
"bcaab786ad73404e89c10712"
],
"4" : [
"00f5dfcce9ed4c4f86c1bc9a"
],
"5" : [
"264b3498004a43938ed02732"
]
},
"configurations.name" : {
"notprovided" : [
"00f5dfcce9ed4c4f86c1bc9a",
"232ee7b19c734802b38df6b4",
"264b3498004a43938ed02732",
"51d743cad4864703bce54444",
"bcaab786ad73404e89c10712",
"e346f5a9d647401f83e8a0e4"
],
"BurninBoxConfiguration_v0" : [
"232ee7b19c734802b38df6b4"
],
"BurninBoxConfiguration_v1" : [
"e346f5a9d647401f83e8a0e4"
],
"DefaultContext_v2" : [
"51d743cad4864703bce54444"
],
"DefaultContext_v3" : [
"bcaab786ad73404e89c10712"
],
"GroupAliasTreeEditWizBackbone_v4" : [
"00f5dfcce9ed4c4f86c1bc9a"
],
"iterateDefaultGroup_v5" : [
"264b3498004a43938ed02732"
]
},
"entities.name" : {
"OTSROOT" : [
"00f5dfcce9ed4c4f86c1bc9a",
"232ee7b19c734802b38df6b4",
"264b3498004a43938ed02732",
"51d743cad4864703bce54444",
"bcaab786ad73404e89c10712",
"e346f5a9d647401f83e8a0e4"
]
},
"aliases.active.name" : {

},
"runs.name" : {

},
"configurations.assigned" : {
"notprovided" : [
"2024-11-09T09:23:56.760-0600",
"2024-11-09T09:23:57.248-0600",
"2024-11-09T09:23:57.737-0600",
"2024-11-09T09:23:57.966-0600",
"2024-11-09T09:23:58.172-0600",
"2024-11-09T09:23:58.504-0600"
],
"BurninBoxConfiguration_v0" : [
"2024-11-09T09:23:57.065-0600"
],
"BurninBoxConfiguration_v1" : [
"2024-11-09T09:23:57.526-0600"
],
"DefaultContext_v2" : [
"2024-11-09T09:23:57.833-0600"
],
"DefaultContext_v3" : [
"2024-11-09T09:23:58.064-0600"
],
"GroupAliasTreeEditWizBackbone_v4" : [
"2024-11-09T09:23:58.199-0600"
],
"iterateDefaultGroup_v5" : [
"2024-11-09T09:23:58.730-0600"
]
}
}