{
"ouid" : [
"2d3ceb7de1414184975312ca"
],
"version" : {
"5" : [
"2d3ceb7de1414184975312ca"
]
},
"configurations.name" : {
"notprovided" : [
"2d3ceb7de1414184975312ca"
],
"iterateDefaultGroup_v5" : [
"2d3ceb7de1414184975312ca"
]
},
"entities.name" : {
"OTSROOT" : [
"2d3ceb7de1414184975312ca"
]
},
"aliases.active.name" : {

},
"runs.name" : {

},
"configurations.assigned" : {
"notprovided" : [
"2024-11-09T09:23:58.282-0600"
],
"iterateDefaultGroup_v5" : [
"2024-11-09T09:23:58.544-0600"
]
}
}