{
"ouid" : [
"22330e05b4184b47a65e8e72",
"6be5377c37b240c2aa36b550",
"b3992678c6934172b46e1305",
"ca9d746502f74492b6789928",
"cb093fad86554af6bd3f4c31",
"d830c0ab58864f7b9cd21841",
"f78e89f25795467faf55b687"
],
"version" : {
"5" : [
"d830c0ab58864f7b9cd21841"
],
"6" : [
"f78e89f25795467faf55b687"
],
"7" : [
"6be5377c37b240c2aa36b550"
],
"8" : [
"b3992678c6934172b46e1305"
],
"9" : [
"ca9d746502f74492b6789928"
],
"10" : [
"cb093fad86554af6bd3f4c31"
],
"11" : [
"22330e05b4184b47a65e8e72"
]
},
"configurations.name" : {
"notprovided" : [
"22330e05b4184b47a65e8e72",
"6be5377c37b240c2aa36b550",
"b3992678c6934172b46e1305",
"ca9d746502f74492b6789928",
"cb093fad86554af6bd3f4c31",
"d830c0ab58864f7b9cd21841",
"f78e89f25795467faf55b687"
],
"iterateDefaultGroup_v5" : [
"d830c0ab58864f7b9cd21841"
],
"iterateDefaultGroup_v6" : [
"f78e89f25795467faf55b687"
],
"iterateDefaultGroup_v7" : [
"d830c0ab58864f7b9cd21841"
],
"iterateDefaultGroup_v8" : [
"d830c0ab58864f7b9cd21841"
],
"iterateDefaultGroup_v9" : [
"6be5377c37b240c2aa36b550"
],
"iterateDefaultGroup_v10" : [
"6be5377c37b240c2aa36b550"
],
"iterateDefaultGroup_v11" : [
"b3992678c6934172b46e1305"
],
"iterateDefaultGroup_v12" : [
"ca9d746502f74492b6789928"
],
"iterateDefaultGroup_v13" : [
"cb093fad86554af6bd3f4c31"
],
"iterateDefaultGroup_v14" : [
"22330e05b4184b47a65e8e72"
],
"iterateDefaultGroup_v15" : [
"22330e05b4184b47a65e8e72"
]
},
"entities.name" : {
"OTSROOT" : [
"22330e05b4184b47a65e8e72",
"6be5377c37b240c2aa36b550",
"b3992678c6934172b46e1305",
"ca9d746502f74492b6789928",
"cb093fad86554af6bd3f4c31",
"d830c0ab58864f7b9cd21841",
"f78e89f25795467faf55b687"
]
},
"aliases.active.name" : {

},
"runs.name" : {

},
"configurations.assigned" : {
"notprovided" : [
"2024-11-09T09:23:58.485-0600",
"2024-11-12T14:13:08.572-0600",
"2024-12-16T15:31:17.398-0600",
"2024-12-17T23:45:26.085-0600",
"2024-12-18T10:28:22.233-0600",
"2024-12-18T12:45:26.132-0600",
"2024-12-19T18:17:04.502-0600"
],
"iterateDefaultGroup_v5" : [
"2024-11-09T09:23:58.714-0600"
],
"iterateDefaultGroup_v6" : [
"2024-11-12T14:13:09.020-0600"
],
"iterateDefaultGroup_v7" : [
"2024-12-16T10:45:57.779-0600"
],
"iterateDefaultGroup_v8" : [
"2024-12-16T10:47:42.413-0600"
],
"iterateDefaultGroup_v9" : [
"2024-12-16T15:31:18.469-0600"
],
"iterateDefaultGroup_v10" : [
"2024-12-17T15:07:45.874-0600"
],
"iterateDefaultGroup_v11" : [
"2024-12-17T23:45:27.168-0600"
],
"iterateDefaultGroup_v12" : [
"2024-12-18T10:28:23.395-0600"
],
"iterateDefaultGroup_v13" : [
"2024-12-18T12:45:27.092-0600"
],
"iterateDefaultGroup_v14" : [
"2024-12-19T18:17:05.605-0600"
],
"iterateDefaultGroup_v15" : [
"2024-12-19T18:17:59.902-0600"
]
}
}