{
"ouid" : [
"de6a1416c92e44e988a3ac08"
],
"version" : {
"0" : [
"de6a1416c92e44e988a3ac08"
]
},
"configurations.name" : {
"notprovided" : [
"de6a1416c92e44e988a3ac08"
],
"BurninBoxConfiguration_v0" : [
"de6a1416c92e44e988a3ac08"
],
"BurninBoxConfiguration_v1" : [
"de6a1416c92e44e988a3ac08"
],
"BurninBoxConfiguration_v2" : [
"de6a1416c92e44e988a3ac08"
],
"BurninBoxConfiguration_v3" : [
"de6a1416c92e44e988a3ac08"
],
"BurninBoxConfiguration_v4" : [
"de6a1416c92e44e988a3ac08"
],
"BurninBoxConfiguration_v5" : [
"de6a1416c92e44e988a3ac08"
],
"BurninBoxConfiguration_v6" : [
"de6a1416c92e44e988a3ac08"
]
},
"entities.name" : {
"OTSROOT" : [
"de6a1416c92e44e988a3ac08"
]
},
"aliases.active.name" : {

},
"runs.name" : {

},
"configurations.assigned" : {
"notprovided" : [
"2024-08-22T17:05:40.282-0500"
],
"BurninBoxConfiguration_v0" : [
"2024-08-22T17:05:40.633-0500"
],
"BurninBoxConfiguration_v1" : [
"2024-08-22T17:05:41.106-0500"
],
"BurninBoxConfiguration_v2" : [
"2024-08-22T17:15:54.846-0500"
],
"BurninBoxConfiguration_v3" : [
"2024-10-10T15:24:10.815-0500"
],
"BurninBoxConfiguration_v4" : [
"2024-10-10T15:27:42.051-0500"
],
"BurninBoxConfiguration_v5" : [
"2024-10-10T15:44:13.524-0500"
],
"BurninBoxConfiguration_v6" : [
"2024-10-10T15:51:49.932-0500"
]
}
}