{
"document" : {
"data" : {
"NAME" : "DATA_BUFFER_TABLE",
"COMMENT" : "Records for data buffer Producers and Consumers.",
"AUTHOR" : "admin",
"CREATION_TIME" : 1724357512,
"COL_TYPES" : {
"DATA_BUFFER_GROUP_ID" : "STRING",
"DATA_BUFFER_UID" : "STRING",
"LINK_TO_DATA_PROCESSOR_TABLE" : "STRING",
"LINK_TO_DATA_PROCESSOR_GROUP_ID" : "STRING",
"STATUS" : "STRING",
"COMMENT_DESCRIPTION" : "STRING",
"AUTHOR" : "STRING",
"RECORD_INSERTION_TIME" : "TIMESTAMP WITH TIMEZONE"
},
"DATA_SET" : [
{
"DATA_BUFFER_GROUP_ID" : "VisualizerDataBuffer",
"DATA_BUFFER_UID" : "VisualizerBurninBoxBuffer",
"LINK_TO_DATA_PROCESSOR_TABLE" : "DataProcessorTable",
"LINK_TO_DATA_PROCESSOR_GROUP_ID" : "VisualizerBurninBoxBuffer",
"STATUS" : "On",
"COMMENT_DESCRIPTION" : "Burnin Box status plots",
"AUTHOR" : "admin",
"RECORD_INSERTION_TIME" : "1720551447"
},
{
"DATA_BUFFER_GROUP_ID" : "VisualizerDataBuffer",
"DATA_BUFFER_UID" : "VisualizerPowerSupplyBuffer",
"LINK_TO_DATA_PROCESSOR_TABLE" : "DataProcessorTable",
"LINK_TO_DATA_PROCESSOR_GROUP_ID" : "VisualizerPowerSupplyBuffer",
"STATUS" : "On",
"COMMENT_DESCRIPTION" : "Power Supply status plots",
"AUTHOR" : "admin",
"RECORD_INSERTION_TIME" : "1719506695"
},
{
"DATA_BUFFER_GROUP_ID" : "VisualizerDataBuffer",
"DATA_BUFFER_UID" : "TrackerBuffer",
"LINK_TO_DATA_PROCESSOR_TABLE" : "DataProcessorTable",
"LINK_TO_DATA_PROCESSOR_GROUP_ID" : "VisualizerTrackerBuffer",
"STATUS" : "On",
"COMMENT_DESCRIPTION" : "Modules calibrations plots",
"AUTHOR" : "admin",
"RECORD_INSERTION_TIME" : "1720551439"
},
{
"DATA_BUFFER_GROUP_ID" : "VisualizerDataBuffer",
"DATA_BUFFER_UID" : "TrackerMonitorBuffer",
"LINK_TO_DATA_PROCESSOR_TABLE" : "DataProcessorTable",
"LINK_TO_DATA_PROCESSOR_GROUP_ID" : "VisualizerTrackerMonitorBuffer",
"STATUS" : "On",
"COMMENT_DESCRIPTION" : "Modules monitoring system",
"AUTHOR" : "admin",
"RECORD_INSERTION_TIME" : "1724357508"
}
]
},
"metadata" : {

},
"search" : [

]
},
"comments" : [

],
"origin" : {
"source" : "template",
"name" : "notprovided",
"format" : "json",
"created" : "2024-11-09T09:23:57.198-0600",
"rawdata" : [

]
},
"version" : "1",
"entities" : [
{
"name" : "OTSROOT",
"assigned" : "2024-11-09T09:23:57.198-0600"
}
],
"configurations" : [
{
"name" : "notprovided",
"assigned" : "2024-11-09T09:23:57.198-0600"
},
{
"name" : "BurninBoxConfiguration_v1",
"assigned" : "2024-11-09T09:23:57.356-0600"
}
],
"changelog" : "notprovided",
"bookkeeping" : {
"isdeleted" : false,
"isreadonly" : false,
"updates" : [
{
"event" : "addConfiguration",
"timestamp" : "2024-11-09T09:23:57.198-0600",
"value" : {
"name" : "notprovided",
"assigned" : "2024-11-09T09:23:57.198-0600"
}
},
{
"event" : "setVersion",
"timestamp" : "2024-11-09T09:23:57.198-0600",
"value" : {
"name" : "1",
"assigned" : "2024-11-09T09:23:57.198-0600"
}
},
{
"event" : "setCollection",
"timestamp" : "2024-11-09T09:23:57.198-0600",
"value" : {
"name" : "DataBufferTable",
"assigned" : "2024-11-09T09:23:57.198-0600"
}
},
{
"event" : "addEntity",
"timestamp" : "2024-11-09T09:23:57.198-0600",
"value" : {
"name" : "OTSROOT",
"assigned" : "2024-11-09T09:23:57.198-0600"
}
},
{
"event" : "addConfiguration",
"timestamp" : "2024-11-09T09:23:57.356-0600",
"value" : {
"name" : "BurninBoxConfiguration_v1",
"assigned" : "2024-11-09T09:23:57.356-0600"
}
}
],
"created" : "2024-11-09T09:23:57.198-0600"
},
"_id" : {
"$oid" : "b52da7c73abf465092f4d570"
},
"collection" : "DataBufferTable",
"aliases" : {
"active" : [

],
"history" : [

]
},
"runs" : [

],
"attachments" : [

],
"configtype" : "notprovided"
}