{
"ouid" : [
"0e12997b264a4a9da5d2c4b0",
"cab860bc94404c4a90cd871c"
],
"version" : {
"2" : [
"cab860bc94404c4a90cd871c"
],
"3" : [
"0e12997b264a4a9da5d2c4b0"
]
},
"configurations.name" : {
"notprovided" : [
"0e12997b264a4a9da5d2c4b0",
"cab860bc94404c4a90cd871c"
],
"DefaultContext_v2" : [
"cab860bc94404c4a90cd871c"
],
"DefaultContext_v3" : [
"0e12997b264a4a9da5d2c4b0"
]
},
"entities.name" : {
"OTSROOT" : [
"0e12997b264a4a9da5d2c4b0",
"cab860bc94404c4a90cd871c"
]
},
"aliases.active.name" : {

},
"runs.name" : {

},
"configurations.assigned" : {
"notprovided" : [
"2024-08-22T17:05:41.436-0500",
"2024-08-22T17:05:41.681-0500"
],
"DefaultContext_v2" : [
"2024-08-22T17:05:41.606-0500"
],
"DefaultContext_v3" : [
"2024-08-22T17:05:41.835-0500"
]
}
}