{
"ouid" : [
"0be8d76e751a4fa7a3d82c22",
"7482173ed38d4546bfcaf10c"
],
"version" : {
"5" : [
"0be8d76e751a4fa7a3d82c22"
],
"6" : [
"7482173ed38d4546bfcaf10c"
]
},
"configurations.name" : {
"notprovided" : [
"0be8d76e751a4fa7a3d82c22",
"7482173ed38d4546bfcaf10c"
],
"iterateDefaultGroup_v5" : [
"0be8d76e751a4fa7a3d82c22"
],
"iterateDefaultGroup_v6" : [
"0be8d76e751a4fa7a3d82c22"
],
"iterateDefaultGroup_v7" : [
"7482173ed38d4546bfcaf10c"
],
"iterateDefaultGroup_v8" : [
"7482173ed38d4546bfcaf10c"
],
"iterateDefaultGroup_v9" : [
"7482173ed38d4546bfcaf10c"
],
"iterateDefaultGroup_v10" : [
"7482173ed38d4546bfcaf10c"
],
"iterateDefaultGroup_v11" : [
"7482173ed38d4546bfcaf10c"
],
"iterateDefaultGroup_v12" : [
"7482173ed38d4546bfcaf10c"
],
"iterateDefaultGroup_v13" : [
"7482173ed38d4546bfcaf10c"
],
"iterateDefaultGroup_v14" : [
"0be8d76e751a4fa7a3d82c22"
],
"iterateDefaultGroup_v15" : [
"7482173ed38d4546bfcaf10c"
]
},
"entities.name" : {
"OTSROOT" : [
"0be8d76e751a4fa7a3d82c22",
"7482173ed38d4546bfcaf10c"
]
},
"aliases.active.name" : {

},
"runs.name" : {

},
"configurations.assigned" : {
"notprovided" : [
"2024-11-09T09:23:58.392-0600",
"2024-12-16T10:44:23.761-0600"
],
"iterateDefaultGroup_v5" : [
"2024-11-09T09:23:58.635-0600"
],
"iterateDefaultGroup_v6" : [
"2024-11-12T14:13:08.934-0600"
],
"iterateDefaultGroup_v7" : [
"2024-12-16T10:45:57.529-0600"
],
"iterateDefaultGroup_v8" : [
"2024-12-16T10:47:42.155-0600"
],
"iterateDefaultGroup_v9" : [
"2024-12-16T15:31:18.241-0600"
],
"iterateDefaultGroup_v10" : [
"2024-12-17T15:07:45.660-0600"
],
"iterateDefaultGroup_v11" : [
"2024-12-17T23:45:26.967-0600"
],
"iterateDefaultGroup_v12" : [
"2024-12-18T10:28:23.133-0600"
],
"iterateDefaultGroup_v13" : [
"2024-12-18T12:45:26.868-0600"
],
"iterateDefaultGroup_v14" : [
"2024-12-19T18:17:05.363-0600"
],
"iterateDefaultGroup_v15" : [
"2024-12-19T18:17:59.637-0600"
]
}
}